# PathPlanner CSV Format:
# timeSeconds, xPositionMeters, yPositionMeters, headingDegrees, velocityMetersPerSecond, accelerationMetersPerSecondSq, curvatureRadPerMeter, holonomicRotationDegrees, angularVelocityDegreesPerSec, holonomicAngularVelocityDegreesPerSec
 0.0,2.502970863635584,2.893020493007989,0.5709203076872561,0,3.0,1.5848079969334796,0.0,0.0,-0.03983429741875316
 0.0898244035161098,2.515072898005482,2.8931410869841723,0.5709203076872561,0.26947321054832946,3.0000000000000004,1.5848079969334796,-0.003578092005122815,29.36158443713541,-0.28433996720492877
 0.12757397174837565,2.5273776531540015,2.8935018358220685,1.679307442804334,0.382721915245127,3.0000000000000004,1.4966707427349757,-0.014311802998285507,36.28733395077398,-0.6096895103256954
 0.1569128970552081,2.5398831071393784,2.8941011898856956,2.7439388231701773,0.4707386911656244,3.0,1.4139175447692423,-0.032199438002090346,40.836876782883905,-0.9996689412011923
 0.18195992344319872,2.5525872380198504,2.8949375995390727,3.766781153554192,0.5458797703295962,3.0,1.3362844562025302,-0.057238172351611244,43.99494760530387,-1.4405526019784758
 0.20430265479824974,2.565488023853654,2.8960095151462166,4.749748448879042,0.6129079643947493,2.9999999999999987,1.2635012903127298,-0.08942405214043607,46.21066637692552,-1.9232527669215913
 0.2247513152036891,2.578583442699027,2.8973153870711474,5.694694672729846,0.6742539456110673,3.0,1.1952969780156057,-0.1287519948450373,47.743041454071246,-2.4411677484497285
 0.24378474513156892,2.591871472614205,2.898853665677884,6.603408506789773,0.7313542353947068,3.0,1.131403701263254,-0.17521579012735536,48.76044412543824,-2.9892252880479306
 0.26171324015080394,2.6053500916574257,2.9006228013304427,7.477609886428379,0.7851397204524119,3.0000000000000013,1.0715600066670117,-0.22880810081549405,49.38054463358667,-3.5633826316771855
 0.27875108579418967,2.619017277886926,2.9026212443928436,8.318947983681749,0.8362532573825691,3.0,1.0155130803243673,-0.28952046406233156,49.689590624876786,-4.160334167800648
 0.29505334082564777,2.6328710093609424,2.9048474452291044,9.12900036245724,0.8851600224769433,2.9999999999999933,0.9630203418599229,-0.35734329268190673,49.75291742575365,-4.777326046230077
 0.3107362946907247,2.6469092641377125,2.907299854203244,9.909273071098317,0.9322088840721741,2.9999999999999964,0.9138504920460626,-0.4322658766633635,49.62120239146301,-5.4120312700731
 0.325889663935334,2.661130020275473,2.909976921679281,10.661201473297645,0.9776689918060019,3.0000000000000036,0.8677841281941208,-0.5142763848621528,49.33444175161848,-6.0624614775764485
 0.3405842698038721,2.6755312558324604,2.912877098021233,11.386151650582029,1.0217528094116162,3.0,0.8246140218912014,-0.6033618668683338,48.924613668895574,-6.726902269447077
 0.3548770875574381,2.6901109488669124,2.915998833593119,12.085422237415177,1.0646312626723142,3.000000000000004,0.7841451374532586,-0.6995082550515904,48.417536654327726,-7.403864352726475
 0.3688146891685571,2.704867077437065,2.9193405787589577,12.760246574294948,1.1064440675056713,3.0,0.7461944550577867,-0.8027003667826575,47.834210392567584,-8.092045719645315
 0.3824356626364426,2.719797619601156,2.922900783882767,13.411795084909363,1.1473069879093278,3.000000000000008,0.7105906499769845,-0.9129219068308627,47.191809752235116,-8.790301774474747
 0.39577235642855496,2.7349005534174213,2.9266778993285656,14.041177801070548,1.187317069285665,2.999999999999996,0.6771736695502855,-1.0301554699372946,46.504438280273895,-9.49762134162583
 0.4088521654836473,2.750173856944099,2.930670375460372,14.649446973990855,1.226556496450942,3.0,0.6457942406615422,-1.1543825435633301,45.78370997255036,-10.213107127103685
 0.4216984977131842,2.765615508239425,2.9348766626422047,15.237599722998999,1.2650954931395526,3.0,0.61631333331711,-1.2855835108139553,45.03920534652857,-10.935959619378496
 0.434331512787302,2.7812234853616373,2.9392952112380817,15.806580683067983,1.302994538361906,2.9999999999999956,0.5886016007027198,-1.4237376535355073,44.27883355227281,-11.66546369212677
 0.44676869538723013,2.7969957663689717,2.943924471612022,16.357284621269425,1.3403060861616904,3.0000000000000044,0.5625388105431162,-1.56882315558732,43.50912294146446,-12.400977360800034
 0.4590253059976066,2.8129303293196664,2.948762894128044,16.890558999161954,1.37707591799282,3.0000000000000138,0.5380132798031797,-1.7208171062867401,42.73545633645479,-13.141922278091997
 0.47111473967239625,2.8290251522719565,2.9538089291501657,17.40720646410339,1.413344219017189,3.0,0.5149213207760548,-1.8796955040269738,41.962262961228106,-13.887775648831745
 0.483048814662599,2.8452782132840806,2.9590610270424063,17.907987257041295,1.4491464439877972,2.9999999999999956,0.49316670513883837,-2.045433260067244,41.1931760303874,-14.638063314716678
 0.4948380069018375,2.8616874904142753,2.9645176381687834,18.393621528208325,1.4845140207055125,2.9999999999999907,0.47266014972204407,-2.218004202494583,40.43116285285756,-15.392353811257205
 0.5064916422107466,2.8782509617207768,2.970177212893316,18.864791555210637,1.51947492663224,3.000000000000014,0.4533188271476272,-2.3973810803566717,39.67863274513756,-16.150253238683668
 0.518018055131786,2.8949666052618226,2.976038201580022,19.32214386037337,1.5540541653953583,3.0000000000000098,0.43506590270618606,-2.5835355679650935,38.93752690617898,-16.911400818719017
 0.5294247211715186,2.91183239909565,2.9820990545929207,19.766291226205254,1.588274163514556,2.9999999999999902,0.41783009831738954,-2.776438269368282,38.209393522332654,-17.675465032605633
 0.5407183676615531,2.9288463212804947,2.98835822229603,20.197814609245093,1.6221551029846595,2.9999999999999902,0.40154528357158525,-2.9760587229934963,37.49545072411576,-18.44214025422198
 0.5519050672864132,2.946006349874595,2.9948141550533682,20.61726495379452,1.6557152018592396,2.9999999999999902,0.38615009357897456,-3.182365406457018,36.796639489711104,-19.21114380686047
 0.5629903174529802,2.963310462936187,3.001465303228954,21.025164907826944,1.6889709523589405,2.99999999999998,0.37158757276582727,-3.3953257415419613,36.11366820196484,-19.98221338393536
 0.5739791080129519,2.9807566385235074,3.008310117186806,21.42201044405065,1.7219373240388558,3.0000000000000204,0.35780484358643316,-3.6149060993426905,35.447050245335774,-20.755104783566452
 0.584875979341284,2.998342854694794,3.015347047290942,21.808272389542992,1.7546279380238519,2.99999999999999,0.344752799186919,-3.8410718055752633,34.797135780968034,-21.52958991467546
 0.5956850723802075,3.016067089508283,3.022574543905381,22.184397867687533,1.7870552171406224,3.0,0.3323858185427961,-4.07378714605286,34.16413863418878,-22.30545503871341
 0.6064101719514753,3.033927321022212,3.0299910573941413,22.550811656305804,1.8192305158544255,2.999999999999979,0.32066150287148765,-4.313015372325498,33.54815907410916,-23.08249921644416
 0.6170547443980542,3.0519215272948177,3.0375950381212418,22.907917466019512,1.8511642331941622,3.0,0.309540431936856,-4.558718707483038,32.94920312615678,-23.860532933589383
 0.6276219704252053,3.0700476863843362,3.0453849364507004,23.256099142868123,1.8828659112756154,2.9999999999999893,0.2989859391143651,-4.81085835212056,32.3671989557072,-24.63937688292585
 0.6381147738582291,3.0883037763490053,3.0533592027465355,23.595721799187935,1.914344321574687,3.0,0.28896390355829255,-5.069394490465292,31.802010772300484,-25.41886088344728
 0.6485358469115515,3.106687775247062,3.0615162873727657,23.92713287668862,1.9456075407346543,3.0000000000000107,0.27944255874804147,-5.334286296663936,31.25345062985115,-26.19882291992713
 0.6588876724647279,3.125197661136743,3.0698546406934097,24.25066314554365,1.9766630173941835,3.0000000000000107,0.2703923157524847,-5.60549194122958,30.72128844158587,-26.979108288379077
 0.6691725437603799,3.1438314120762847,3.0783727130724854,24.566627643201965,2.00751763128114,3.0000000000000218,0.2617856004204512,-5.882968597647018,30.20526047653039,-27.759568834879456
 0.6793925818732237,3.1625870061239247,3.0870689548740122,24.87532655648048,2.038177745619671,2.9999999999999893,0.2535967033216953,-6.166672449135596,29.705076560178643,-28.540062276801837
 0.6895497512452191,3.1814624213379004,3.095941816462007,25.177046050310302,2.068649253735657,2.999999999999989,0.24580164147536315,-6.456558695568369,29.220426178261892,-29.320451596913408
 0.6996458735371877,3.2004556357764473,3.10498974820049,25.472059046429475,2.098937620611563,3.000000000000011,0.23837803077988776,-6.752581560546552,28.750983632252865,-30.100604502016314
 0.7096826400101459,3.219564627497803,3.1142112004534783,25.76062595501424,2.1290479200304375,2.999999999999989,0.231304968822238,-7.054694298628165,28.296412402163394,-30.88039293880853
 0.7196616226186937,3.238787374560205,3.1236046235849915,26.042995362259724,2.158984867856081,3.000000000000011,0.22456292642132664,-7.362849202709658,27.856368816301465,-31.65969266056502
 0.7295842839729231,3.25812185502189,3.1331684679590466,26.3194046765824,2.1887528519187693,3.000000000000022,0.218133647996586,-7.676997611559425,27.430505141520708,-32.438382838997676
 0.7394519863035631,3.277566046941094,3.1429011839396632,26.590080736098017,2.21835595891069,3.0000000000000338,0.21200005958019286,-7.997089917501997,27.01847216718912,-33.2163457163298
 0.749265999546729,3.2971179283760543,3.152801221890859,26.855240379756925,2.2477979986401877,3.0000000000000226,0.2061461840221445,-8.323075574251634,26.619921369551616,-33.99346629322314
 0.7590275086491033,3.316775477385008,3.1628670321766537,27.115090984510285,2.27708252594731,2.999999999999966,0.20055706269470622,-8.654903104894185,26.23450670315839,-34.76963204868127
 0.768737620181173,3.3365366720261935,3.1730970651610644,27.369830970586786,2.3062128605435195,3.0000000000000226,0.1952186834497,-8.992520110015905,25.86188608743526,-35.54473268850549
 0.7783973683348853,3.3563994903578456,3.1834897712081105,27.619650276971406,2.3351921050046567,3.0000000000000346,0.19011791385357474,-9.335873275977892,25.501722619296192,-36.31865991929152
 0.7880077203724527,3.3763619104382023,3.1940436006818094,27.86473080890724,2.364023161117359,3.0,0.1852424397807167,-9.684908383334975,25.1536855680871,-37.09130724527148
 0.7975695815847665,3.3964219103254996,3.20475700394618,28.105246859287472,2.3927087447543003,2.999999999999977,0.18058070858947936,-10.039570315397551,24.81745116618762,-37.862569785612386
 0.8070837998107707,3.4165774680779752,3.215628431365241,28.34136550549578,2.421251399432313,3.0,0.17612187662893813,-10.39980306693518,24.492703244710114,-38.63234411006838
 0.8165511695629971,3.436826561753867,3.226656333303011,28.573246983345005,2.449653508688992,2.9999999999999885,0.17185576070248126,-10.765549753020442,24.179133721618985,-39.40052809108382
 0.8259724357991544,3.4571671694114094,3.2378391601235084,28.801045039496024,2.4779173073974636,3.0,0.16777279318242097,-11.136752618011736,23.876442974644334,-40.16702077065174
 0.8353482973750518,3.4775972691088413,3.249175362190751,29.0249072637511,2.506044892125156,3.0000000000000235,0.1638639805791995,-11.513353044673563,23.584340113864076,-40.93172224047523
 0.8446794102101138,3.4981148389043994,3.2606633898687574,29.244975402494045,2.534038230630342,2.999999999999988,0.16012086500516085,-11.895291563432856,23.302543166507995,-41.69453353404081
 0.8539663901932557,3.5187178568563198,3.272301693521547,29.461385654437706,2.561899170579768,3.000000000000024,0.15653548868222245,-12.28250786176993,23.030779191597176,-42.45535652942081
 0.8632098158538234,3.5394043010228398,3.284088723513137,29.674268949800183,2.589629447561471,2.999999999999988,0.1531003609797831,-12.674940793742529,22.768784337764277,-43.21409386174773
 0.8724102308196194,3.560172149462197,3.2960229302075468,29.88375121397433,2.617230692458859,2.999999999999976,0.14980842784980852,-13.072528389641468,22.516303844798152,-43.97064884438201
 0.8815681460816851,3.581019380232627,3.308102763968794,30.089953616599914,2.6447044382450557,2.999999999999988,0.14665304343691707,-13.475207865776364,22.27309200926212,-44.724925397908166
 0.89068404208344,3.601943971392368,3.3203266751608975,30.292992806993865,2.6720521262503203,2.999999999999988,0.14362794393891706,-13.88291563438994,22.03891211343383,-45.47682798620277
 0.8997583706499461,3.6229439009996565,3.3326931141478764,30.492981136759518,2.699275111949839,3.0000000000000124,0.1407272231269228,-14.295587313699226,21.81353632637866,-46.22626155886163
 0.9087915567714603,3.644017147112729,3.3452005312937483,30.690026870364107,2.726374670314381,2.9999999999999876,0.1379453097233263,-14.713157738062218,21.596745584551844,-46.973131499362125
 0.917784000254003,3.665161687789823,3.3578473769625314,30.88423438444004,2.753352000762009,2.9999999999999876,0.13527694638525709,-15.135560968268278,21.388329452337462,-47.71734357841164
 0.9267360772484082,3.686375501089176,3.3706321015182445,31.075704356479072,2.780208231745225,2.9999999999999876,0.13271717014835135,-15.562730301950708,21.18808596967772,-48.458803911949786
 0.9356481416681948,3.707656565069023,3.3835531553249067,31.264533943572815,2.8069444250045845,3.0000000000000124,0.1302612942414052,-15.994598284119808,20.995821488994277,-49.19741892336659
 0.9445205265055973,3.7290028577876027,3.396608988746536,31.45081695180058,2.833561579516792,2.9999999999999876,0.12790489117078202,-16.431096717814825,20.81135050681069,-49.93309530951275
 0.9533535450542027,3.750412357303151,3.40979805214715,31.634643996848766,2.860060635162608,3.0,0.12564377704368046,-16.872156674873033,20.634495486246898,-50.665740010122754
 0.9621474920458428,3.771883041673905,3.423118795890768,31.81610265635406,2.8864424761375287,3.0000000000000124,0.1234739968669379,-17.317708506814274,20.465086679717558,-51.39526018032748
 0.9709026447086802,3.7934128889581027,3.436569670341409,31.995277614493187,2.9127079341260407,3.0,0.12139181088771944,-17.767681855839285,20.30296194912639,-52.121563165939726
 0.9796192637527846,3.81499987721398,3.4501491258630907,32.17225079927067,2.938857791258354,2.999999999999987,0.1193936819775397,-18.22200566594001,20.147966586961424,-52.844556481214816
 0.9882975942889326,3.8366419844997735,3.463855612819831,32.34710151294359,2.964892782866798,3.0,0.11747626364482192,-18.680608194120133,19.9999531386723,-53.56414778887197
 0.9969378666858395,3.8583371888737212,3.4776875815756494,32.519906555987085,2.9908136000575185,2.999999999999987,0.11563638909397628,-19.143417021724165,19.858781226878826,-54.28024488213248
 1.0055402973705752,3.880083468394059,3.4916434824945637,32.69074034497464,3.0166208921117255,3.0,0.11387106084818385,-19.610359065873187,19.72431738072455,-54.99275566852563
 1.0141050895765027,3.9018788011190244,3.5057217659405926,32.85967502474431,3.042315268729508,2.9999999999999742,0.11217744117620748,-20.081360591005453,19.596434868374534,-55.70158815534803
 1.022632434042696,3.923721165106854,3.5199208822777543,33.02678057517627,3.0678973021280878,3.0,0.11055284309079584,-20.556347220520138,19.47501353438414,-56.40665043651855
 1.0311225096684598,3.9456085384157857,3.5342392818700676,33.192124912895956,3.0933675290053793,3.000000000000026,0.10899472189506763,-21.0352439485222,19.359939643462077,-57.107850680757664
 1.039575484126264,3.9675388991040546,3.5486754150815507,33.35577398820678,3.1187264523787923,3.0,0.10750066745299611,-21.51797515166675,19.251105727381656,-57.805097120840486
 1.0479915144361358,3.9895102252298997,3.5632277322762222,33.517791877506966,3.143974543308407,2.999999999999974,0.10606839682456393,-22.00446460110082,19.148410443176868,-58.49829804391304
 1.0563707475042843,4.011520494851556,3.5778946838181005,33.678240871494914,3.1691122425128526,3.0,0.10469574732779485,-22.494635474500782,19.051758430552127,-59.18736178261762
 1.0647133206285302,4.033567686027262,3.5926747200712046,33.837181559347265,3.1941399618855906,3.0000000000000266,0.10338067029239026,-22.988410368203468,18.96106018264532,-59.87219670705398
 1.0730193619728776,4.055649776815255,3.6075662913995514,33.994672909156975,3.219058085918633,3.0000000000000266,0.10212122491645079,-23.48571130942916,18.876231920798826,-60.55271121732104
 1.0812889910134007,4.077764745273769,3.6225678481671615,34.15077234482486,3.2438669730402023,3.0,0.10091557279012148,-23.986459768594326,18.797195471804194,-61.22881373670022
 1.0895223189574292,4.099910569461043,3.637677840738051,34.305535819572235,3.268566956872288,3.0,0.09976197258260754,-24.490576671712418,18.723878163959988,-61.900412705241315
 1.0977194491378737,4.122085227435314,3.65289471947624,34.459017886365,3.2931583474136215,3.000000000000027,0.09865877513011215,-24.997982412880518,18.65621271487387,-62.567416573807435
 1.1058804773843764,4.144286697254819,3.6682169347457467,34.61127176530385,3.31764143215313,3.0,0.09760441886385851,-25.508596866850066,18.594137138911563,-63.229733798381574
 1.114005492372857,4.166512956977796,3.683642936910589,34.76234940825536,3.3420164771185723,3.000000000000082,0.09659742556027248,-26.022339401679556,18.53759465659097,-63.88727283464275
 1.1220945759548915,4.188761984662479,3.6991711763347856,34.9123015608424,3.366283727864676,3.0000000000000275,0.09563639623647449,-26.539128891467218,18.4865336085941,-64.5399421327331
 1.1301478034682613,4.211031758367106,3.714800103382355,35.061177821925966,3.3904434104047856,3.000000000000055,0.0947200073892183,-27.05888372916184,18.440907382972945,-65.18765013208534
 1.138165244029909,4.2333202561499155,3.730528168417316,35.2090267007718,3.4144957320897293,3.0000000000000555,0.09384700756077312,-27.581521839449323,18.400674344994492,-65.8303052563951
 1.1461469608124406,4.255625456069143,3.7463538218036865,35.35589567200115,3.4384408824373236,2.9999999999999445,0.09301621393901269,-28.106960691713468,18.36579777560239,-66.46781590849191
 1.1540930113052394,4.277945336183025,3.762275513905485,35.501831228466614,3.4622790339157197,2.999999999999944,0.0922265093073799,-28.635117313068402,18.336245816756733,-67.10009046524092
 1.1620034475611727,4.3002778745498,3.7782916950867307,35.646878932173195,3.486010342683519,2.999999999999972,0.0914768391687818,-29.165908301461045,18.31199142399501,-67.7270372722849
 1.169878316429804,4.3226210492277035,3.7944008157114406,35.79108346336066,3.5096349492894134,3.0,0.09076620908456916,-29.6992498388412,18.293012327257863,-68.34856463865809
 1.1777176597779622,4.344972838274974,3.8106013261436344,35.93448866786612,3.5331529793338876,3.0,0.0900936819931309,-30.235057704397416,18.27929099652553,-68.96458083122394
 1.1855215146984486,4.367331219749847,3.82689167674733,36.07713760285236,3.556564544095347,3.0,0.08945837607458236,-30.773247287856446,18.270814616033654,-69.57499406880632
 1.1932899137076272,4.38969417171056,3.8432703178865464,36.21907258101244,3.579869741122883,3.0000000000000573,0.08885946240177059,-31.313733602844167,18.26757506675467,-70.1797125161107
 1.2010228849325688,4.412059672215349,3.859735699925301,36.36033521335311,3.603068654797708,3.0,0.08829616291501201,-31.85643130030593,18.2695689139287,-70.77864427725078
 1.2087204522883952,4.434425699322453,3.8762862732276133,36.50096645062999,3.626161356865187,2.999999999999971,0.08776774851499143,-32.40125468198414,18.276797403269907,-71.37169738897364
 1.216382635646408,4.456790231090107,3.8929204881575012,36.6410066235311,3.649147906939225,2.999999999999971,0.08727353727216834,-32.94811771395106,18.28926646333227,-71.95877981339198
 1.2240094509935646,4.479151245576548,3.9096367950789834,36.78049548168188,3.6720283529806945,2.999999999999942,0.0868128928684703,-33.4969340401945,18.306986717872128,-72.53979943035387
 1.2316009105838088,4.501506720840014,3.926433644356078,36.91947223156974,3.694802731751427,3.0,0.08638522287435885,-34.047616996254455,18.329973502079632,-73.11466402926689
 1.2391570230817457,4.523854634938742,3.943309486352804,37.057975573435655,3.717471069245238,3.0000000000000586,0.08598997747526893,-34.60007962290845,18.35824688859216,-73.68328130040496
 1.246677793699108,4.546192965930968,3.9602627714331793,37.196043737221665,3.740033381097325,3.0,0.08562664814831987,-35.15423467990338,18.391831721816445,-74.24555882567961
 1.254163224324437,4.568519691874929,3.9772919499612227,37.33371451764805,3.762489672973312,3.0000000000000298,0.08529476637582768,-35.709994659731784,18.43075765733676,-74.80140406875721
 1.2616133136463732,4.590832790828863,3.9943954723009525,37.47102530846616,3.7848399409391216,3.0000000000000893,0.0849939025706685,-36.26727180145027,18.475059211928198,-75.35072436456049
 1.2690280572709283,4.613130240851006,4.011571788816386,37.608013135971085,3.807084171812787,3.0,0.08472366508059315,-36.825978104538,18.52477582165926,-75.89342690809195
 1.276407447833081,4.635410019999594,4.0288193498715446,37.74471469183543,3.8292223434992447,3.0,0.08448369921187582,-37.386025342793,18.579951903355663,-76.42941874249722
 1.2837514751030272,4.657670106332866,4.046136605830444,37.88116636528797,3.8512544253090835,2.99999999999997,0.08427368644749643,-37.94732507826404,18.640636933854104,-76.95860674640173
 1.2910601260873875,4.679908477909058,4.063522007057104,38.017404274763685,3.8731803782621648,3.000000000000061,0.08409334363905757,-38.50978867521613,18.706885529419473,-77.48089762041432
 1.2983333851256567,4.702123112786406,4.080974003915543,38.153464299018395,3.895000155376972,3.0,0.08394242233305922,-39.07332731412701,18.778757535101544,-77.99619787276882
 1.3055712339821706,4.724311989023149,4.098491046769778,38.289382107770585,3.916713701946514,3.0,0.0838207082307797,-39.637852005712865,18.856318131508704,-78.50441380410463
 1.3127736519338382,4.746473084677522,4.116071585983828,38.42519319198332,3.9383209558015166,2.9999999999999694,0.08372802056136022,-40.203273604980694,18.939637939387993,-79.00545149126789
 1.3199406158538824,4.768604377807763,4.133714071921714,38.560932893753616,3.959821847561649,2.999999999999969,0.08366421177765172,-40.769502825305416,19.02879313995552,-79.49921677016222
 1.3270721002918093,4.790703846472109,4.151416954947452,38.696636435903734,3.9812163008754298,3.0,0.08362916704707579,-41.336450252529204,19.117867077363083,-79.96052633968404
 1.3341703040247446,4.812769468728796,4.169178685425059,38.83233895135804,4.0,2.6462609177326084,0.08362280400554992,-41.904026359081016,19.162211279855143,-80.20199300324458
 1.3412538581579954,4.83479922263606,4.186997713718557,38.968075512271675,4.0,0.0,0.08364507258341657,-42.4721415181141,19.168122178164698,-80.24934201192846
 1.3483388321314942,4.856791086252141,4.2048724901919625,39.10388115902482,4.0,0.0,0.08369595471339387,-43.04070601765902,19.18059032275046,-80.29076391152178
 1.3554246291698464,4.878743037635274,4.222801465209294,39.239790929127615,4.0,0.0,0.08377546435803561,-43.60963007479032,19.199619913332462,-80.32626184901466
 1.3625106526186126,4.900653054843696,4.24078308913457,39.375839886040886,4.0,0.0,0.08388364741845851,-44.17882384980417,19.22522247330308,-80.35583773926163
 1.369596305965275,4.9225191159356445,4.25881581233181,39.51206314799918,4.0,0.0,0.08402058175768963,-44.74819746040522,19.25741686206786,-80.37949226705138
 1.3766809928603196,4.944339198969356,4.276898085165031,39.648495916874275,4.0,0.0,0.08418637743939028,-45.31766099589995,19.296229302062667,-80.39722488732826
 1.3837641171384623,4.966111282003067,4.295028357998252,39.78517350712033,4.0,0.0,0.08438117670267954,-45.887124531394676,19.341693420052362,-80.40903382344301
 1.390845082840043,4.987833343095016,4.31320508119549,39.92213137483821,4.0,0.0,0.08460515441301869,-46.456498141995716,19.39385031124787,-80.41491606354096
 1.3979232942326172,5.009503360303437,4.331426705120767,40.05940514705716,4.0,0.0,0.08485851820569704,-47.025691917009574,19.423105829676146,-80.29232837987416
 1.4050089532066556,5.03111931168657,4.349691680138099,40.1970306511829,3.987809321422532,-1.7204721003556662,0.08514150898825776,-47.59461597414087,19.40690635691733,-79.94938539868207
 1.4121205088078612,5.052679175302651,4.367998456611504,40.335043944787515,3.9664746546189154,-3.0,0.08545440135277409,-48.16318047368581,19.37430875547697,-79.50769393671327
 1.4192659199109083,5.074180929209916,4.386345484905002,40.47348134568276,3.9450384213097744,-2.999999999999938,0.08579750412927045,-48.731295632718876,19.34725599701399,-79.05823701898903
 1.4264451352330954,5.095622551466603,4.4047312153826095,40.6123794623788,3.9235007753432134,-3.0,0.08617116093615065,-49.298871739270695,19.325709163149746,-78.60110583932523
 1.4336581053455353,5.11700202013095,4.423154098408347,40.7517752249743,3.9018618650058934,-3.0000000000000306,0.08657575097144225,-49.865819166494475,19.30963447361133,-78.13639131868796
 1.4409047827357835,5.13831731326119,4.441612584346232,40.891705916528174,3.8801218328351483,-3.0000000000000613,0.08701168958629374,-50.4320483868192,19.29900321139004,-77.66418411998492
 1.4481851218737611,5.159566408915563,4.460105123560283,41.032209204932016,3.8582808154212156,-2.9999999999999694,0.08747942934189117,-50.997469986087026,19.29379166737722,-77.18457466193615
 1.4554990792811633,5.1807472851523055,4.4786301664145185,41.1733231754145,3.836338943199009,-3.0,0.08797946079173408,-51.56199467767288,19.293981083670925,-76.6976531318765
 1.462846613604566,5.201857920029654,4.497186163272957,41.315086363661855,3.8142963402288013,-3.0,0.08851231349016125,-52.12553331658377,19.299557605840533,-76.20350949762071
 1.470227685692455,5.222896291605846,4.515771564499617,41.45753778961494,3.792153123965134,-3.0,0.08907855721088415,-52.68799691353585,19.310512253124948,-75.70223351843755
 1.4776422586764126,5.243860377939117,4.534384820458516,41.60071699207334,3.769909405013261,-3.0000000000000298,0.08967880296515833,-53.24929664900691,19.326840883328583,-75.1939147550694
 1.4850902980567167,5.264748157087706,4.553024381513675,41.744664064069234,3.747565286872349,-3.0,0.09031370449886086,-53.80934388726189,19.34854417704229,-74.6786425790104
 1.4925717717926195,5.2855576071098485,4.571688698029108,41.889419689157734,3.725120865664641,-2.9999999999999405,0.09098395946350878,-54.36805019034963,19.375627621953775,-74.15650618083022
 1.5000866503976007,5.306286706063783,4.590376220368839,42.03502517863203,3.702576229849697,-3.0,0.09169031110716884,-54.92532733206811,19.408101508483224,-73.62759457789228
 1.5076349070398907,5.326933432007744,4.609085398896881,42.181522509757684,3.679931459922827,-3.0,0.09243354971177536,-55.481087311896516,19.44598093444484,-73.09199662113137
 1.5152165176486057,5.34749576299997,4.627814683977258,42.328954365107144,3.657186628096682,-3.0000000000000293,0.09321451449218744,-56.035242368891446,19.489285810323224,-72.54980100131534
 1.5228314610258311,5.367971677098697,4.646562525973982,42.477364173015324,3.634341797965006,-2.999999999999942,0.09403409531371416,-56.58770499554544,19.538040884385072,-72.0010962544332
 1.5304797189650434,5.388359152362163,4.665327375251078,42.626796149325976,3.611397024147369,-3.0,0.09489323473132967,-57.138387951605395,19.59227575838068,-71.44597076661505
 1.538161276376254,5.408656166848605,4.684107682172559,42.77729534038024,3.5883523519137372,-3.000000000000029,0.0957929300718725,-57.68720427784882,19.652024930257877,-70.88451277828034
 1.545876121418322,5.428860698616258,4.702901897102448,42.92890766748004,3.5652078167875327,-3.000000000000029,0.09673423573974006,-58.23406730981575,19.71732782371148,-70.31681038779345
 1.5536242456388825,5.448970725723362,4.72170847040476,43.081679972755666,3.541963444125851,-3.0000000000000573,0.09771826560825365,-58.77889069149396,19.78822884600973,-69.74295155454202
 1.5614056441223887,5.468984226228152,4.740525852443515,43.235660066689285,3.5186192486753325,-3.0,0.09874619547136987,-59.321588388955725,19.86477743232724,-69.16302410146443
 1.5692203156467976,5.4888991781888645,4.759352493582731,43.39089677722841,3.495175234102106,-2.9999999999999716,0.09981926604703538,-59.86207470394345,19.947028115822885,-68.57711571713068
 1.5770682628494617,5.508713559663738,4.778186844186426,43.54744000073145,3.4716313924941136,-3.0000000000000284,0.10093878560461209,-60.40026428740247,20.035040593036026,-67.98531395733112
 1.58494949240284,5.528425348711008,4.797027354618621,43.70534075475641,3.447987703833979,-2.9999999999999436,0.10210613328084352,-60.936072152958694,20.128879800394657,-67.38770624626453
 1.5928640152006792,5.548032523388912,4.815872475243331,43.864651232831605,3.4242441354404614,-3.0,0.10332276232159579,-61.46941369033885,20.228616001238713,-66.78437987731687
 1.6008118465553718,5.567533061755686,4.834720656424576,44.025424861348284,3.400400641376384,-2.999999999999972,0.10459020355111813,-62.000204678731485,20.334324873276334,-66.1754220135162
 1.6087930064072433,5.586924941869569,4.853570348526374,44.18771635864179,3.3764571618207695,-2.999999999999972,0.10591006924253994,-62.52836130008642,20.446087612226023,-65.56091968766249
 1.6168075195465859,5.606206141788796,4.872420001912745,44.35158179645813,3.3524136224027417,-3.0000000000000275,0.10728405697494733,-63.05380015235057,20.56399103349329,-64.94095980214934
 1.6248554158493165,5.625374639571605,4.891268066947706,44.51707866386596,3.32826993349455,-3.0,0.10871395402648681,-63.576438262638064,20.68812768858446,-64.31562912864348
 1.6329367305271998,5.644428413276233,4.910112993995275,44.68426593381365,3.3040259894608996,-3.0000000000000275,0.11020164182359588,-64.09619310033267,20.81859598741862,-63.685014307466396
 1.6410515043936647,5.663365440960916,4.928953233419472,44.85320413246883,3.279681667861505,-3.0000000000000275,0.11174910075497332,-64.61298259012034,20.955500322540285,-63.049201846932995
 1.6491997841463049,5.682183700683892,4.947787235584315,45.023955411453436,3.255236828603584,-3.000000000000027,0.11335841531062052,-65.12672512494983,21.09895120911302,-62.408278122533794
 1.6573816226672617,5.700881170503397,4.966613450853821,45.19658362320795,3.230691313040713,-3.000000000000027,0.11503177956009189,-65.63733957891937,21.249065427530475,-61.762329376143065
 1.6655970793427688,5.719455828477669,4.98543032959201,45.37115439962284,3.206044943014192,-3.0,0.11677150298441766,-66.14474532008747,21.40596617038897,-61.11144171519818
 1.6738462204032507,5.737905652664942,5.0042363221629,45.54773523409828,3.181297519832746,-3.000000000000027,0.11858001659915304,-66.64886222320555,21.569783203066113,-60.455701111991544
 1.6821291192854846,5.756228621123457,5.023029878930509,45.72639556728098,3.1564488231860444,-3.0,0.12045987962964874,-67.14961068237074,21.7406530282818,-59.795193403137354
 1.6904458570184475,5.774422711911448,5.041809450258857,45.907206876660545,3.1314986099871556,-3.0,0.12241378648101499,-67.64691162359642,21.918719053037936,-59.13000428923959
 1.6987965226346267,5.792485903087155,5.06057348651196,46.090242770207446,3.106446613138618,-3.0,0.12444457425072535,-68.1406865172991,22.104131771340583,-58.460219334898184
 1.707181213608705,5.810416172708812,5.079320438053839,46.275579084360444,3.081292540216383,-3.0,0.12655523069547622,-68.63085739069906,22.2970489405245,-57.785923969076286
 1.7156000363257113,5.828211498834657,5.098048755248509,46.46329398650314,3.0560360720653645,-2.999999999999947,0.1287489027570498,-69.11734684013312,22.49763577844054,-57.10720348604135
 1.7240531065808948,5.845869859522926,5.116756888459993,46.653468082313815,3.0306768612998143,-2.999999999999974,0.13102890556161778,-69.60007804327769,22.70606514836128,-56.424143046822
 1.7325405501137925,5.8633892328318575,5.135443288052307,46.84618452811483,3.0052145307011218,-2.9999999999999476,0.13339873218543952,-70.07897477127973,22.92251776543352,-55.736827681480946
 1.7410625031791713,5.880767596819687,5.154106404389468,47.04152914865217,2.979648671504985,-3.000000000000026,0.1358620638999959,-70.55396140079442,23.147182392917063,-55.045342292122115
 1.749619113157772,5.898002929544652,5.172744687835497,47.23959056049189,2.953978841569183,-2.9999999999999742,0.13842278115295606,-71.02496292592669,23.380256050342894,-54.349771657035774
 1.7582105392100391,5.91509320906499,5.191356588754411,47.44046030143148,2.9282045634123817,-3.0000000000000258,0.14108497541063514,-71.49190497007571,23.621944218305583,-53.650200435862004
 1.7668369529763275,5.932036413438937,5.2099405575102296,47.64423296622277,2.9023253221135166,-3.0,0.14385296155689797,-71.95471379767976,23.872461047114964,-52.946713176141735
 1.7754985393273903,5.948830520724731,5.228495044466971,47.851006348994744,2.876340563060328,-3.0,0.14673129136034,-72.41331632585987,24.132029560501426,-52.239394321391444
 1.784195497169313,5.965473508980608,5.247018499988652,48.06088159272246,2.85024968953456,-3.0,0.1497247677656373,-72.86764013596058,24.400881863423525,-51.528328220833046
 1.79292804030746,5.981963356264806,5.265509374439293,48.27396334620362,2.8240520601201196,-2.9999999999999747,0.15283846009019728,-73.3176134849856,24.67925933459798,-50.813599141159735
 1.8016963983744314,5.99829804063556,5.283966118182911,48.490359928877034,2.797746985919205,-3.0,0.15607772039841158,-73.76316531692684,24.967412822955513,-50.095291280460906
 1.8105008178275277,6.014475540151109,5.3023871815835255,48.71018350402895,2.771333727559916,-3.0,0.1594482008769997,-74.20422527398506,25.265602826827013,-49.373488784672425
 1.8193415630217482,6.030493832869688,5.320771015005153,48.9335502607993,2.7448114919772544,-3.0000000000000253,0.16295587250746305,-74.64072370768005,25.574099662871717,-48.64827576684383
 1.8282189173649717,6.046350896849535,5.339116068811816,49.16058060551553,2.7181794289475842,-2.999999999999975,0.16660704499305654,-75.07259168984918,25.893183615541343,-47.9197363295687
 1.8371331845626158,6.0620447101488875,5.357420793367529,49.39139936286212,2.6914366273546517,-3.000000000000025,0.17040838797324687,-75.4997610235316,26.223145071296983,-47.187954590988944
 1.846084689959858,6.077573250825982,5.375683639036312,49.626135987500504,2.6645821111629253,-2.999999999999975,0.1743669539346729,-75.92216425373766,26.5642846181827,-46.45301471481564
 1.8550737819903005,6.092934496939055,5.393903056182184,49.86492478665621,2.6376148350715978,-3.0,0.17849020247236094,-76.33973467810064,26.916913117660528,-45.7150009448059
 1.8641008337409397,6.1081264265463435,5.412077495169163,50.1079051543368,2.61053367981968,-3.0000000000000244,0.18278602647361386,-76.75240635740992,27.28135174142886,-44.973997644292226
 1.8731662446443291,6.123147017706084,5.430205406361267,50.355221817872746,2.5833374471095114,-3.0000000000000244,0.18726277988309648,-77.1601141260235,27.657931950783233,-44.230089341350904
 1.8822704423100218,6.137994248476514,5.448285240122514,50.607025097376955,2.556024854112433,-3.0000000000000244,0.1919293077537154,-77.56279360215841,28.046995434012143,-43.48336078024511
 1.8914138845087112,6.152666096915871,5.466315446816924,50.86347117897475,2.5285945275163653,-2.9999999999999756,0.19679497810615196,-77.96038119805733,28.448893964390525,-42.7338969799766
 1.90059706132398,6.167160541082391,5.484294476808514,51.12472240244858,2.5010449970705584,-3.0000000000000484,0.20186971613877921,-78.35281413002994,28.863989190961757,-41.98178330065185
 1.9098204974882806,6.181475559034311,5.502220780461303,51.390947564198484,2.4733746885776564,-3.0,0.20716404094197782,-78.740030428367,29.292652330011336,-41.2271055187536
 1.9190847549216714,6.19560912882987,5.52009280813931,51.66232223629052,2.445581916277484,-3.000000000000024,0.21268910468091554,-79.1219689471263,29.735263756599487,-40.46994991222484
 1.928390435494013,6.209559228527302,5.537909010206552,51.93902910254376,2.41766487456046,-2.9999999999999525,0.21845673461773962,-79.49856937378813,30.192212462021754,-39.710403356607635
 1.9377381840338055,6.223323836184845,5.55566783702705,52.22125831249873,2.389621628941082,-3.0000000000000235,0.22447947793789153,-79.86977223877943,30.66389537018249,-38.948553433531835
 1.9471286916096366,6.236900929860736,5.573367738964819,52.50920785427693,2.361450106213588,-3.0000000000000235,0.23077065003283634,-80.23551892486468,31.15071648676986,-38.18448855299355
 1.9565626991134348,6.250288487613211,5.59100716638388,52.8030839473618,2.3331480837021936,-3.0,0.23734438580118675,-80.59575167640232,31.653085836738533,-37.41829809104995
 1.9660410011783653,6.263484487500509,5.608584569648252,53.10310145620958,2.3047131775074026,-2.999999999999953,0.24421569480276065,-80.9504136084649,32.171418190529145,-36.65007254483793
 1.9755644504684058,6.276486907580865,5.62609839912195,53.409484325935765,2.276142829637281,-3.0,0.2514005201528496,-81.29944871582197,32.70613150593404,-35.879903706846136
 1.9851339623814623,6.289293725912517,5.643547105168996,53.72246604101179,2.247434293898112,-2.999999999999977,0.2589158013876367,-81.64280188178395,33.257645072856775,-35.1078848608582
 1.9947505202134075,6.301902920553703,5.660929138153407,54.04229010820923,2.218584620402276,-3.000000000000023,0.26677954185626196,-81.98041888690567,33.826377296019075,-34.33411100210149
 2.0044151808368396,6.3143124695626565,5.678242948439201,54.369210564895425,2.1895906385319797,-3.000000000000023,0.27501088042265315,-82.31224641754822,34.41274306091553,-33.5586790844715
 2.0141290809557653,6.326520350997617,5.695486986390398,54.70349251380742,2.160448938175202,-3.0000000000000457,0.28363016825203413,-82.63823207429786,35.01715063109418,-32.78168829820635
 2.0238934440059775,6.338524542916821,5.712659702371014,55.04541268555338,2.131155849024566,-2.9999999999999547,0.2926590504919071,-82.95832438024044,35.63999798515059,-32.00324038153652
 2.0337095877809372,6.350323023378506,5.72975954674507,55.3952600299149,2.101707417699687,-2.9999999999999547,0.3021205533303041,-83.2724727890902,36.281668518621025,-31.223439970570947
 2.0435789328746212,6.361913770440907,5.7467849698765825,55.75333633709982,2.0720993824186356,-2.999999999999955,0.3120391767641349,-83.58062769317169,36.94252601351394,-30.442394991956625
 2.053503012046494,6.3732947621622635,5.763734422129571,56.11995689006691,2.042327144903017,-3.0,0.3224409929665264,-83.8827404312533,37.622908754948995,-29.66021710366945
 2.063483480629833,6.38446397660081,5.780606353868054,56.495451148909495,2.0123857391530002,-3.0,0.33335375077754503,-84.17876329623148,38.323122665917595,-28.87702218972302
 2.0735221281236162,6.3954193918147855,5.797399215456049,56.88016346821366,1.9822697966716498,-3.000000000000066,0.3448069864853618,-84.46864954266427,39.043433318523334,-28.09293091555187
 2.08362089113063,6.406158985862426,5.814111457257575,57.27445384827757,1.9519735076506088,-2.999999999999978,0.3568321406087684,-84.75235339415283,39.78405662824385,-27.308069351581608
 2.0937818678311437,6.416680736801967,5.830741529636652,57.67869872072908,1.9214905775490674,-3.0000000000000218,0.36946268135133975,-85.02983005057027,40.545148045712054,-26.522569673434333
 2.104007334213358,6.426982622691648,5.8472878829572945,58.093291769032405,1.890814178402424,-3.0000000000000435,0.38273423414607843,-85.30103569513591,41.3267900089125,-25.736570948492012
 2.1142997623199924,6.437062621589705,5.8637489675835255,58.51864478407711,1.8599368940825207,-3.0000000000000218,0.3966847174880002,-85.56592750133456,42.128977370798744,-24.950220019669732
 2.1246618408163305,6.446918711554375,5.88012323387936,58.95518855456378,1.8288506585935058,-3.0000000000000644,0.41135448475280667,-85.82446363967928,42.95160051460863,-24.163672498728054
 2.135096498240644,6.456548870643893,5.896409132208819,59.4033737917597,1.7975466863205647,-3.0,0.4267864712084287,-86.07660328431682,43.794425758906605,-23.37709388322158
 2.145606929365442,6.465951076916498,5.912605112935919,59.86367208734875,1.7660153929461713,-3.000000000000042,0.44302634625392173,-86.32230661947435,44.65707266588033,-22.590660812954315
 2.156196625180602,6.475123308430427,5.92870962642468,60.336576902875926,1.7342463055006905,-3.0000000000000417,0.46012266913910416,-86.56153484574699,45.53898771900989,-21.80456248409176
 2.166869407110869,6.484063543243916,5.944721123039119,60.82260458812603,1.702227959709889,-2.999999999999979,0.4781270476481425,-86.79425018622459,46.43941382473423,-21.01900224159323
 2.1776294662056346,6.492769759415203,5.9606380531432555,61.32229542520644,1.6699477824255928,-3.0,0.49709429759929796,-87.02041589245714,47.35735494869991,-20.234199373526206
 2.1884814081949,6.501239935002523,5.9764588671011065,61.83621469387479,1.637391956457796,-3.0000000000000613,0.5170826013976237,-87.23999625025787,48.291535099465364,-19.450391134198593
 2.1994303055006466,6.509472048064115,5.992182015276693,62.36495375241569,1.6045452645405567,-2.9999999999999596,0.5381536626495314,-87.45295658534282,49.240350721843306,-18.66783502710809
 2.2104817575390827,6.517464076658215,6.00780594803403,62.909131126773914,1.5713909084252489,-2.9999999999999396,0.560372853792301,-87.65926326880634,50.20181542026832,-17.88681138307661
 2.2216419609621525,6.52521399884306,6.023329115737139,63.46939359907151,1.537910298156039,-3.00000000000004,0.5838093521674724,-87.85888372243156,51.17349567800351,-17.107626274653708
 2.2329177918872753,6.532719792676887,6.0387499687500386,64.04641728418419,1.5040828053806712,-2.999999999999941,0.6085362596828958,-88.05178642383474,52.152436058087574,-16.330614814078935
 2.2443169026818017,6.5399794362179335,6.054066957436745,64.64090868101476,1.469885472997092,-3.0,0.6346306995927757,-88.23794091144316,53.135071987733106,-15.556144889823903
 2.2558478365431482,6.546990907524434,6.0692785321612766,65.25360568182322,1.4352926714130518,-3.0000000000000577,0.6621738823936318,-88.41731778930524,54.11712789817998,-14.784621406019097
 2.2675201640034297,6.553752184654629,6.0843831432876545,65.88527851986069,1.400275689032207,-3.000000000000038,0.6912511322621593,-88.58988873173259,55.0934979813624,-14.016491100175008
 2.2793446466685814,6.560261245666753,6.099379241179895,66.53673063170389,1.3648022410367524,-2.9999999999999623,0.7219518620038746,-88.75562648777286,56.05810617951881,-13.252248028422784
 2.2913334350914565,6.566516068619044,6.114265276202016,67.2087994060772,1.3288358757681276,-2.999999999999963,0.7543694838400394,-88.91450488551308,57.00374122493375,-12.492439824657367
 2.30350030984393,6.572514631569738,6.129039698718038,67.9023567859834,1.2923352515107058,-3.0000000000000546,0.7886012401573357,-89.0664988362125,57.92186144375835,-11.737674861534558
 2.3158609778436268,6.578254912577072,6.143700959091978,68.61830968521411,1.2552532475116163,-2.9999999999999822,0.8247479356925737,-89.21158433826432,58.80236253553982,-10.988630469084232
 2.3284334401818816,6.583734889699284,6.158247507687856,69.3576001735926,1.217535860496852,-2.9999999999999822,0.8629135496394433,-89.34973848098588,59.63329951720378,-10.246062402706226
 2.341238453668425,6.58895254099461,6.1726777948696885,70.12120537815748,1.1791208200372207,-3.0000000000000346,0.9032047029115661,-89.4809394482365,60.40055108518505,-9.510815800386556
 2.354300116961387,6.593905844521288,6.186990271001495,70.91013703914152,1.1399358301583353,-2.999999999999983,0.9457299518756666,-89.60516652186253,61.08741047686572,-8.783837933666502
 2.3676466249447703,6.5985927783375535,6.201183386447294,71.72544065075522,1.0998963062081863,-2.9999999999999503,0.9905988761873629,-89.72240008496895,61.67408066003717,-8.0661931464015
 2.381311254348961,6.603011320501644,6.215255591571103,72.56819410681881,1.0589024179956135,-3.0000000000000164,1.0379209245295236,-89.83262162501715,62.137042232397626,-7.359080501237174
 2.39533367355116,6.607159449071797,6.229205336736942,73.43950576098622,1.0168351603890173,-2.9999999999999525,1.087803977834213,-89.93581373674823,62.448247542650414,-6.663854835200229
 2.4097617171627026,6.611035142106249,6.243031072308827,74.34051179999598,0.97355102955439,-2.9999999999999925,1.1403525865148605,-90.03196012493149,62.57407061639782,-5.982052193073786
 2.424653844334266,6.614636377663236,6.25673124865078,75.27237281725776,0.9288746480397007,-2.999999999999985,1.1956658348505285,-90.12104560693767,62.473902345525936,-5.315421011055606
 2.4400826331410608,6.617961133800996,6.270304316126817,76.23626946248321,0.8825882816193155,-3.000000000000014,1.2538347845754834,-90.20305611513645,62.09821065754519,-4.66596104894727
 2.4561399004854487,6.621007388577766,6.283748725100955,77.23339703261954,0.834416479586152,-2.999999999999979,1.31493944881283,-90.2779786991179,61.38575806036833,-4.0359730661028435
 2.4729444795816797,6.6237731200517835,6.297062925937216,78.2649588593271,0.7840027422974586,-3.00000000000002,1.379045251150557,-90.34580152773748,60.25942365991816,-3.428123870217201
 2.4906545640317463,6.626256306281283,6.310245368999618,79.33215834125659,0.7308724889472582,-3.0000000000000315,1.4461989291192234,-90.40651389098431,58.61957042382873,-2.845534119505038
 2.5094883957263976,6.628454925324504,6.323294504652176,80.43618946463172,0.674370993863304,-3.0000000000000235,1.5164238531410343,-90.46010620167246,56.332760794947426,-2.2919009781100845
 2.5297614335784235,6.630366955239682,6.336208783258912,81.57822565653682,0.6135518803072263,-2.9999999999999947,1.589714746419625,-90.50656999695478,53.21076549160291,-1.7716756743537099
 2.551959595055656,6.6319903740850545,6.348986655183843,82.75940682124657,0.5469573958755286,-3.00000000000002,1.6660318159835903,-90.54589793965937,48.96644287154877,-1.2903269434267286
 2.5769035675525416,6.633323159918858,6.361626570790988,83.98082442550479,0.47212547838487223,-2.99999999999998,1.745294334859311,-90.5780838194482,43.102284661010856,-0.8547110685365761
 2.6061985366611,6.63436329079933,6.374126980444364,85.24350452315741,0.38424057105919646,-3.000000000000015,1.8273737577574012,-90.60312255379772,34.518110470000444,-0.47318175560162395
 2.644001420631255,6.635108744784707,6.3864863345079925,86.54838864812383,0.2708319191487313,-3.0000000000000075,1.9120865024272606,-90.62101018880152,14.930927417115225,-0.11889711183492709
 2.7342787270141655,6.635557499933226,6.398703083345887,87.89631255713975,0,-2.9999999999999964,1.9120865024272606,-90.63174389979469,0.0,0.0
 2.7342787270141655,6.635707534303124,6.410775677322069,89.80606531192366,0,-3.0,0.5419879022679702,-90.6353219917998,0.0,-0.03829747268171346
 2.823896249019235,6.6356667578773205,6.39872879595664,89.80606531192366,-0.2688525660152088,-3.0,0.5419879022679702,-90.63875411640059,-10.050554057983254,-0.27553642755531005
 2.8612627486920426,6.635546090308941,6.386588933379658,89.43051128700449,-0.38095206503363177,-3.0000000000000004,0.5130123878705733,-90.64904994823068,-12.421679243961938,-0.5949787505082963
 2.8901006075458775,6.635348024161535,6.374357261870084,89.07229665423951,-0.46746564159513576,-3.0,0.4851718078914597,-90.66620786145887,-13.961866895619007,-0.9823694636616042
 2.914548929772228,6.635075051998646,6.362034953706875,88.73095243349401,-0.5408106082741869,-3.0000000000000013,0.45841363135847896,-90.6902251466518,-15.00245591492193,-1.4254610281094464
 2.936207090845077,6.634729666383826,6.349623181168995,88.40602682680031,-0.6057850914927339,-3.0000000000000027,0.432686944655582,-90.72109801120166,-15.69327508189203,-1.9162390824545878
 2.9558933445432767,6.634314359880621,6.3371231165354,88.09708503218255,-0.6648438525873333,-3.0000000000000013,0.407942521581279,-90.75882157992527,-16.120276552107835,-2.4489171015370323
 2.9740925379257797,6.633831625052578,6.324535932085051,87.80370900183131,-0.7194414327348428,-3.0,0.3841328686327675,-90.80338989583386,-16.3392614525637,-3.019053625413957
 2.991119736385281,6.633283954463245,6.311862800096908,87.52549715439683,-0.770523028113346,-3.0,0.3612122484343173,-90.85479592107366,-16.389343658893043,-3.6230964352848285
 3.0071931746731915,6.63267384067617,6.299104892849932,87.26206405051626,-0.8187433429770777,-2.9999999999999964,0.33913668580493117,-90.91303153803736,-16.29940106848901,-4.25811966989132
 3.022471282770672,6.6320037762549005,6.286263382623079,87.01304003906769,-0.8645776672695195,-3.000000000000007,0.3178639588882434,-90.97808755064597,-16.091560156941693,-4.921659704714953
 3.0370732949914943,6.6312762537629855,6.273339441695313,86.77807088100393,-0.9083837039319866,-2.999999999999996,0.2973535785261156,-91.04995368580094,-15.783247023436743,-5.611606395566876
 3.0510915463905315,6.63049376576397,6.260334242345591,86.5568173563363,-0.9504384581290974,-2.999999999999996,0.277566757826476,-91.12861859500644,-15.388475912700999,-6.326127577624368
 3.0645992191502756,6.629658804821403,6.247248956852872,86.3489548594363,-0.9909614764083304,-3.0000000000000084,0.25846637420230795,-91.21406985616139,-14.918701320835952,-7.0636146553669095
 3.077655440909147,6.628773863498832,6.2340847574961185,86.1541729866371,-1.0301301416849449,-3.0000000000000084,0.24001692529378,-91.30629397552107,-14.383405338737274,-7.822642169552887
 3.0903087634261994,6.627841434359806,6.220842816554289,85.97217511999257,-1.0680901092361017,-3.0000000000000044,0.22218448062408178,-91.40527638982792,-13.790516624162352,-8.60193696959347
 3.102599608983091,6.626864009967871,6.207524306306343,85.80267801001524,-1.1049626459067778,-2.999999999999991,0.2049366295995056,-91.51100146861131,-13.146717947516322,-9.400354191878048
 3.114562035690535,6.625844082886574,6.19413039903124,85.64541136012465,-1.1408499260291078,-2.9999999999999956,0.18824242752684872,-91.62345251665566,-12.45767752117549,-10.216858188136301
 3.1262250398927125,6.624784145679464,6.180662267007939,85.50011741484582,-1.1758389386356412,-3.000000000000005,0.1720723402331867,-91.74261177663695,-11.728226667225014,-11.050507135998325
 3.1376135357998143,6.623686690910089,6.167121082515403,85.36655055344855,-1.2100044263569465,-3.0000000000000147,0.15639818775259778,-91.86846043192666,-10.962498730039858,-11.90044044320603
 3.1487491049637484,6.622554211141996,6.153508017832587,85.24447689063066,-1.2434111338487484,-2.9999999999999902,0.1411930880868653,-92.00097860956326,-10.164039419729583,-12.765868308299805
 3.1596505783665836,6.621389198938733,6.139824245238454,85.1336738852311,-1.2761155540572542,-2.99999999999999,0.126431401456331,-92.14014538339029,-9.335895652194278,-13.646062971629375
 3.1703344946194765,6.620194146863846,6.1260709370119635,85.03392995793732,-1.3081673028159333,-3.00000000000001,0.1120886749595074,-92.28593877736088,-8.480687941874661,-14.54035130960681
 3.18081546501711,6.618971547480885,6.112249265432074,84.94504411866694,-1.3396102140088337,-3.0000000000000053,0.09814158882292427,-92.43833576900806,-7.600670019241698,-15.448108509403253
 3.1911064675677028,6.617723893353396,6.098360402777745,84.86682560411273,-1.3704832216606118,-2.999999999999984,0.0845679039201026,-92.59731229308017,-6.697778384947665,-16.368752622396887
 3.2012190861697163,6.616453677044928,6.084405521327938,84.79909352582494,-1.4008210774666523,-3.0,0.07134641012151506,-92.76284324534117,-5.773673845380838,-17.30173983925467
 3.2111637069299497,6.615163391119028,6.070385793361611,84.74167652903935,-1.4306549397473523,-2.9999999999999942,0.058456877535006724,-92.93490248653478,-4.829776594473428,-18.2465603631702
 3.2209496806380633,6.613855528139243,6.056302391157726,84.69441246226978,-1.4600128608716938,-3.0,0.04588000868801506,-93.11346284651228,-3.867296020051368,-19.20273478254504
 3.2305854582554674,6.612532580669121,6.042156486995238,84.65714805783989,-1.4889201937239058,-2.9999999999999942,0.03359739235630839,-93.29849612852287,-2.88725621669639,-20.16981086415273
 3.2400787046935773,6.611197041272209,6.027949253153113,84.62973862304483,-1.5173999330382355,-3.0000000000000178,0.02159146083459796,-93.48997311366634,-1.8905179058381507,-21.147360702170143
 3.249436394980688,6.609851402512057,6.013681861910305,84.61204774199975,-1.5454730038995672,-3.000000000000012,0.009845447151772248,-93.68786356550706,-0.8777973975150823,-22.1349781706179
 3.2586648960330526,6.608498156952211,5.999355485545778,84.60394698779302,-1.5731585070566616,-2.999999999999988,-0.001656654697221193,-93.89213623484868,0.15031695907791473,-23.1322766354287
 3.267770036574967,6.6071397971562185,5.98497129633849,84.60531564483126,-1.6004739286824048,-2.9999999999999756,-0.012930126026283933,-94.1027588646687,1.193350415403545,-24.13888689014218
 3.2767571672380704,6.605778815687628,5.970530466567399,84.61604044094136,-1.6274353206717151,-3.0000000000000124,-0.023989562572203322,-94.31969819521228,2.25092925507377,-25.154455284670394
 3.2856312124720377,6.604417705109985,5.956034168511468,84.63601528896935,-1.6540574563736168,-3.0000000000000124,-0.03484890633885391,-94.54291996924425,3.3227697452402025,-26.178642021666306
 3.2943967155880762,6.60305895798684,5.941483574449654,84.66514103752513,-1.6803539657217326,-2.999999999999987,-0.04552147767981628,-94.77238893745883,4.408668375973539,-27.211119598685094
 3.303057878012221,6.601705066881739,5.926879856660919,84.70332523040362,-1.7063374529941666,-2.999999999999987,-0.05602000688385089,-95.00806886404587,5.508493222867483,-28.25157137758424
 3.311618593631702,6.600358524358231,5.91222418742422,84.75048187437643,-1.73201959985261,-3.0,-0.06635666191216123,-95.24992253241284,6.6221762573716045,-29.299690265338945
 3.3200824789630228,6.599021822979862,5.89751773901852,84.80653121486262,-1.757411255846572,-3.000000000000026,-0.0765430754993871,-95.49791175106188,7.74970648421738,-30.355177492396958
 3.3284528997461775,6.597697455310179,5.882761683722776,84.87139951908146,-1.7825225181960365,-3.0000000000000266,-0.08659037061603134,-95.75199735962059,8.891123789763487,-31.417741476836753
 3.3367329944689983,6.596387913912732,5.867957193815948,84.94501886625302,-1.8073628023644994,-3.0,-0.09650918350216628,-96.0121392350259,10.046513396218058,-32.48709676389285
 3.34492569524397,6.595095691351068,5.8531054415769965,85.02732694433998,-1.8319409046894133,-3.0000000000000138,-0.10630968610594103,-96.27829629786001,11.216000859170634,-33.56296303184933
 3.353033746393062,6.593823280188734,5.838207599284882,85.1182668529944,-1.8562650581366893,-3.0000000000000138,-0.11600160613498678,-96.55042651883733,12.399747505472737,-34.645064156382084
 3.3610597210412516,6.592573172989278,5.823264839218563,85.21778691211728,-1.8803429820812583,-3.0,-0.12559424604159192,-96.82848692544135,13.597946279543503,-35.733127326401565
 3.369006035974043,6.591347862316247,5.8082783336569985,85.32584047569371,-1.9041819268796327,-3.000000000000028,-0.13509650062408146,-97.11243360871048,14.810817917613546,-36.82688220530436
 3.3768749649766607,6.59014984073319,5.793249254879151,85.4423857503581,-1.9277887138874865,-3.0,-0.14451687293010312,-97.40222173017179,16.03860741439239,-37.92606013209748
 3.384668650841216,6.5889816008036535,5.778178775163977,85.56738561825081,-1.9511697714811522,-2.9999999999999716,-0.1538634889843714,-97.69780552892159,17.281580744494782,-39.03039335779772
 3.3923891162018283,6.587845635091185,5.763068066790439,85.7008074637653,-1.9743311675629882,-3.0,-0.16314411112560287,-97.99913832885153,18.540021780265302,-40.13961431267132
 3.40003827333563,6.586744436159333,5.747918302037494,85.84262300362666,-1.997278638964395,-3.000000000000029,-0.17236615005850758,-98.30617254601937,19.814229389305073,-41.253454900696944
 3.40761793304889,6.585680496571645,5.732730653184104,85.99280811987806,-2.0200176181041734,-3.0000000000000293,-0.18153667566875042,-98.61885969616294,21.104514684917298,-42.371645817859
 3.415129812751692,6.5846563088916685,5.717506292509228,86.15134269537718,-2.0425532572125804,-2.9999999999999702,-0.1906624266175527,-98.93715040235645,22.411198380203707,-43.493915891365965
 3.4225755438111825,6.583674365682952,5.702246392291824,86.31821045123706,-2.0648904503910512,-2.999999999999985,-0.1997498186962135,-99.26099440280765,23.734608241758753,-44.619991437168444
 3.429956678261889,6.5827371595090405,5.686952124810855,86.49339878580435,-2.0870338537431716,-3.000000000000015,-0.20880495210218913,-99.59034055879478,25.07507662036305,-45.7495956334769
 3.4372746949418462,6.581847182933484,5.671624662345278,86.67689861476337,-2.108987903783043,-3.0000000000000453,-0.21783361734209017,-99.92513686274185,26.4329380128842,-46.88244790846201
 3.4445310051147664,6.581006928519829,5.656265177174053,86.86870421176641,-2.130756834301804,-2.9999999999999694,-0.22684130045081893,-100.26533044643143,27.808526680814428,-48.01826334015034
 3.4517269576312883,6.580218888831625,5.640874841576141,87.06881304931599,-2.1523446918513693,-3.0000000000000306,-0.23583318670170508,-100.61086758935299,29.202174261346332,-49.15675206727501
 3.458863843676016,6.579485556432417,5.625454827830501,87.2772256392775,-2.173755349985553,-3.0,-0.24481416350687618,-100.96169372718607,30.614207395688936,-50.29761870980764
 3.465942901141635,6.578809423885755,5.610006308216094,87.49394537269598,-2.194992522382411,-3.000000000000047,-0.25378882207464687,-101.31775346041661,32.0449453267293,-51.44056179807124
 3.472965318666673,6.578192983755185,5.594530455011877,87.71897835834726,-2.2160597749575226,-2.999999999999937,-0.26276145829523656,-101.67899056308515,33.494697486553136,-52.58527320982911
 3.4799322393693295,6.5776387286042555,5.579028440496812,87.95233325969555,-2.2369605370654932,-2.999999999999984,-0.27173607242658987,-102.04534799166558,34.9637610327001,-53.731437614610414
 3.486844764306247,6.577149150996514,5.563501436949856,88.19402112972253,-2.257698111876245,-3.0,-0.28071636783267967,-102.41676789407299,36.45241833374388,-54.87873192506796
 3.4937039556818803,6.576726743495509,5.547950616649974,88.44405524317831,-2.2782756860031452,-2.999999999999984,-0.28970574887280715,-102.79319161879911,37.96093440968727,-56.02682475509668
 3.5005108398314313,6.576373998664786,5.53237715187612,88.70245092591377,-2.2986963384517987,-3.0000000000000164,-0.29870731774921244,-103.17455972417426,39.489554287506486,-57.17537588486136
 3.5072664099978104,6.5760934090678935,5.5167822149072565,88.96922538074205,-2.318963048950935,-2.999999999999967,-0.307723870460417,-103.56081198775352,41.03850029261368,-58.3240357329793
 3.5139716289209986,6.57588746726838,5.501166978022343,89.24439750948333,-2.3390787057204996,-3.0,-0.3167578919300182,-103.951887415827,42.60796925071475,-59.472444836215146
 3.5206274312562504,6.575758665829792,5.4855326135003395,89.5279877307226,-2.359046112726256,-2.999999999999983,-0.3258115502694855,-104.34772425305104,44.198129614763246,-60.62023333758831
 3.527234725835914,6.575709497315679,5.4698802936202044,89.82001779295749,-2.3788679964652455,-3.0,-0.33488669012765754,-104.7482599922004,45.80911847384207,-61.76702048357585
 3.5337943977881334,6.575742454289587,5.454211190660898,90.12051058256625,-2.3985470123219046,-2.999999999999983,-0.3439848253386508,-105.1534313840387,47.441038506182835,-62.912414131661755
 3.5403073105244034,6.575860029315064,5.438526476901381,90.42948992647503,-2.418085750530714,-2.999999999999983,-0.3531071309163323,-105.56317444730628,49.09395479594765,-64.05601026943835
 3.5467743076067193,6.576064714955658,5.422827324620612,90.74698038889977,-2.437486741777662,-3.0,-0.36225443415451847,-105.97742447882354,50.76789157206162,-65.1973925470318
 3.5531962145040357,6.576359003774916,5.407114906097551,91.0730070619486,-2.4567524624696104,-3.0000000000000346,-0.3714272051521494,-106.39611606370835,52.462828856193944,-66.33613182438965
 3.559573840246783,6.576745388336386,5.391390393611158,91.40759534979922,-2.475885339697854,-3.0000000000000524,-0.38062554680893973,-106.81918308570589,54.178698991826636,-67.47178573557204
 3.5659079789873527,6.577226361203616,5.375654959440392,91.750770745997,-2.494887755919562,-3.0000000000000173,-0.38984918417401615,-107.24655873762896,55.91538311078826,-68.60389827248977
 3.572199411473661,6.577804414940154,5.359909775864214,92.1025586037846,-2.5137620533784877,-3.0,-0.39909745350748665,-107.67817553190791,57.672707489357286,-69.73199939012726
 3.5784489064422678,6.578482042109546,5.344156015161582,92.46298389906526,-2.5325105382843076,-2.9999999999999645,-0.40836929068010036,-108.1139653112474,59.4504398464483,-70.85560463661135
 3.58465722193683,6.579261735275341,5.328394849611458,92.83207098592251,-2.551135484767994,-3.0000000000000178,-0.41766321951658136,-108.55385925938944,61.24828555886641,-71.97421481054822
 3.590825106557167,6.580145987001086,5.312627451492799,93.20984334444304,-2.569639138629005,-3.0,-0.4269773398604326,-108.99778791198025,62.86515542857348,-72.85469067163538
 3.596972867963194,6.5811372898503295,5.296854993084566,93.59632332077071,-2.571607723163387,-0.32021160295064355,-0.43630931546693486,-109.44568116753936,64.03295944321746,-73.20000509473897
 3.603144822875021,6.582238136386618,5.281078646665719,93.9915318593251,-2.5530918584279063,3.000000000000036,-0.4456563619524588,-109.89746829852959,64.93070901061333,-73.23330158850271
 3.6093661682754528,6.583451019173499,5.265299584515218,94.39548822717505,-2.53442782222661,3.0000000000000355,-0.45501523497225493,-110.35307796252567,65.80626531884933,-73.24256745014488
 3.6156379343664913,6.584778430774523,5.249518978912023,94.80820973057969,-2.515612523953495,2.9999999999999645,-0.4643822184687387,-110.81243821348008,66.65872425642968,-73.22756426751232
 3.6219612130967853,6.586222863753234,5.233738002135091,95.22971142385892,-2.4966426877626127,3.0000000000000178,-0.47375311352468785,-111.27547651308409,67.4871166191839,-73.18804748489933
 3.6283371617000686,6.587786810673182,5.217957826463384,95.66000581080664,-2.477514841952762,2.9999999999999827,-0.4831232277063178,-111.74211974222249,68.290408780551,-73.12376688291452
 3.634767006473387,6.589472764097913,5.202179624175862,96.09910253877202,-2.458225307632808,3.0000000000000173,-0.4924873652561183,-112.21229421251991,69.06750360702522,-73.03446708830569
 3.641252046815839,6.591283216590976,5.186404567551484,96.547008086016,-2.4387701866054523,2.9999999999999827,-0.5018398179585806,-112.68592567797705,69.817241549116,-72.91988811377543
 3.6477936595508127,6.593220660715918,5.170633828869209,97.00372544245447,-2.4191453484005305,3.000000000000017,-0.5111743575359728,-113.162939346695,70.53840203332025,-72.77976592720098
 3.654393303557242,6.595287589036286,5.154868580407999,97.46925378465676,-2.3993464163812432,3.0,-0.5204842289371914,-113.64325989268576,71.22970508647872,-72.61383304957441
 3.661052524738296,6.597486494115629,5.139109994446811,97.9435881454889,-2.379368752838079,3.00000000000005,-0.5297621454954993,-114.12681146776706,71.88981326945316,-72.42181918027846
 3.667772961359214,6.599819868517494,5.123359243264606,98.42671907925586,-2.359207442975326,3.0,-0.5390002856529564,-114.61351771353968,72.52491892673349,-72.21100401905156
 3.674555640350583,6.6022902048054295,5.107617499140344,98.91863232321096,-2.339348675102083,2.927864918642579,-0.5481902917265666,-115.10330177344535,73.14662149798929,-71.9936925716985
 3.6814004695829095,6.604899995542981,5.091885934352984,99.41930845628633,-2.32010178755386,2.811887177159057,-0.557323270966394,-115.59608630490325,73.75940751269282,-71.77474746124717
 3.6883068984336376,6.607651733293698,5.076165721181486,99.9287225563446,-2.301457270049188,2.6995887321284844,-0.5663897988469034,-116.09179349152332,74.36288184361143,-71.55415343789468
 3.6952743704798796,6.610547910621128,5.060458031904809,100.44684385686796,-2.283406718743049,2.590688729906597,-0.5753799253132053,-116.59034505539438,74.95662414135896,-71.33190755189338
 3.7023023223636278,6.613591020088818,5.044764038801915,100.97363540470164,-2.2659427542964012,2.484929426883536,-0.5842831836742588,-117.09166226944507,75.54018984957182,-71.1080180114691
 3.7093901826995683,6.616783554260317,5.0290849141517615,101.50905372010581,-2.2490589461389394,2.3820740473467787,-0.593088602905661,-117.59566596987588,76.11311131132653,-70.88250310896434
 3.7165373710262166,6.620128005699169,5.013421830233309,102.053048460775,-2.2327497431704773,2.281904746745452,-0.6017847231080979,-118.10227656865987,76.67489897191712,-70.6553902135824
 3.723743296800765,6.623626866968927,4.9977759593255175,102.60556209153768,-2.2170104097287187,2.184220866852301,-0.6103596145920388,-118.61141406611074,77.22504265822892,-70.42671481548243
 3.7310073584390953,6.627282630633134,4.982148473707345,103.16652956142973,-2.201836966295116,2.0888373735070442,-0.6188009007724424,-119.1229980635155,77.76301298724569,-70.19651961726201
 3.738328942402477,6.631097789255341,4.966540545657753,103.73587799026139,-2.1872261345535637,1.9955834440507403,-0.6270957849882142,-119.63694777583046,78.2882628541767,-69.96485367105308
 3.745707422332341,6.635074835399093,4.950953347455702,104.31352636647483,-2.1731752864970257,1.90430118264176,-0.6352310813116795,-120.15318204443818,78.80022905781966,-69.73177155406192
 3.7531421582349442,6.63921626162794,4.93538805138015,104.89938525858436,-2.15968239688688,1.814844506503769,-0.6431932496336505,-120.6716193499633,79.29833402822165,-69.497332577248
 3.76063249571809,6.643524560505427,4.919845829710056,105.49335654230696,-2.1467459989524214,1.72707811411266,-0.6509684349754639,-121.1921778251453,79.78198767822288,-69.26160002507635
 3.7681777652820614,6.648002224595104,4.904327854724381,106.0953331456886,-2.1343651428697443,1.640876575410287,-0.6585425111582217,-121.71477526776647,80.250589366646,-69.02464042442075
 3.775777281666944,6.652651746460518,4.8888352987020856,106.70519881447693,-2.122539356965694,1.5561234827487893,-0.6659011286952815,-122.2393291536325,80.7035299955622,-68.78652283870818
 3.7834303432587597,6.657475618665216,4.8733693339221285,107.32282790020989,-2.1112686110812793,1.4727107248774929,-0.6730297670530245,-122.76575664960396,81.140194207026,-68.54731818517016
 3.7911362315569104,6.662476333772746,4.857931132663469,107.94808517325951,-2.100553282196003,1.3905377901529425,-0.6799137909849052,-123.29397462667669,81.5599627043998,-68.30709857693932
 3.7988942107050847,6.667656384346656,4.8425218672050665,108.58082566324609,-2.0903941220027096,1.3095111496509464,-0.6865385108489395,-123.82389967310885,81.96221468275,-68.06593668429933
 3.806703527088242,6.673018262950493,4.827142709825883,109.22089452916796,-2.0807922261044878,1.2295437176716912,-0.6928892467964565,-124.35544810759251,82.34633034736983,-67.82390511631552
 3.814563408998038,6.678564462147805,4.811794832804876,109.8681269614033,-2.0717490049699863,1.1505543261700957,-0.6989513963699188,-124.88853599246794,82.7116935460344,-67.58107582329362
 3.8224730663688105,6.68429747450214,4.796479408421005,110.52234811790878,-2.063266156281007,1.0724672752988051,-0.7047105053198762,-125.42307914697838,83.05769446380131,-67.3375195192364
 3.8304316905861997,6.690219792577045,4.7811976089532315,111.1833730965089,-2.0553456387616897,0.9952118988117473,-0.7101523411010681,-125.9589931605631,83.38373240494285,-67.09330512414697
 3.8384384543703023,6.696333908936069,4.765950606680515,111.85100694531212,-2.0479896471632766,0.9187221949794822,-0.7152629687324344,-126.49619340618688,83.689218617521,-66.848499223654
 3.846492511735379,6.702642316142756,4.7507395738818134,112.52504471289606,-2.0412005883759914,0.8429364827625281,-0.7200288284589655,-127.03459505370346,83.97357918037059,-66.60316555403585
 3.854592998026983,6.709147506760659,4.7355656828360875,113.20527153990362,-2.0349810589882438,0.7677970388263758,-0.7244368143519377,-127.57411308325139,84.2362578845871,-66.35736450402297
 3.862739030038175,6.715851973353321,4.720430105822297,113.89146279313448,-2.0293338232745675,0.6932498799314225,-0.7284743538808083,-128.1146622986795,84.47671915943472,-66.11115263962861
 3.8709297062055175,6.722758208484294,4.705334015119403,114.58338424344892,-2.0242617928318687,0.619244411459219,-0.7321294868779225,-128.6561573410004,84.69445094871959,-65.8645822532671
 3.8791641068851397,6.729868704717121,4.6902785830063625,115.28079228790129,-2.0197680065668027,0.5457332524741885,-0.735390944058124,-129.19851270186976,84.88896759212852,-65.61770093463426
 3.887441294709202,6.737185954615352,4.675264981762138,115.98343421685206,-2.015855612022084,0.47267195427720066,-0.7382482236097567,-129.74164273708885,85.0598126119352,-65.37055116728877
 3.895760315022316,6.744712450742535,4.660294383665685,116.69104852580044,-2.0125278471600208,0.40001884077829986,-0.7406916656941999,-130.285461680129,85.20656146536481,-65.12316995142044
 3.9041201963971326,6.752450685662217,4.645367960995969,117.40336527200691,-2.0097880233776193,0.3277347679423894,-0.7427125234893318,-130.8298836556749,85.32882415864385,-64.87558845265542
 3.912519951228001,6.760403151937946,4.630486886031945,118.1201064749458,-2.0076395088559584,0.25578300378068514,-0.7443030306347987,-131.37482269318554,85.42624777761999,-64.62783167814658
 3.9209585764011337,6.768572342133269,4.6156523310525746,118.84098655988828,-2.0060857130997456,0.1841290167929201,-0.7454564636702582,-131.9201927404697,85.49851884279362,-64.37991818496064
 3.9294350540387297,6.776960748811735,4.600865468336818,119.56571284290682,-2.0051300720271685,0.11274035199933088,-0.7461671991841287,-132.4659076772748,85.54536552195158,-64.13185981530697
 3.937948352314872,6.78557086453689,4.5861274701636345,120.2939860557368,-2.004776033817037,0.04158649193860167,-0.74643076481063,-133.01188132888623,85.56655964985612,-63.883661463329496
 3.946497426340043,6.794405181872282,4.571439508811983,121.02550090826267,-2.0050270455247454,-0.029361274328600827,-0.7462438834084161,-133.55802747973524,85.56191853979632,-63.63532087534124
 3.9550812191105438,6.8034661933814595,4.556802756560824,121.7599466860547,-2.0058865404937105,-0.10012997656687508,-0.7456045098083376,-134.10425988701346,85.5313065741667,-63.38682848114145
 3.9636986625190067,6.812756391627969,4.542218385689117,122.49700788010952,-2.007357926344413,-0.17074505522802974,-0.7445118597764221,-134.65049229429167,85.47463656193882,-63.13816725861768
 3.972348678421622,6.822278269175359,4.527687568475822,123.23636484564054,-2.009444573838855,-0.24123048072212722,-0.7429664305402155,-135.19663844514068,85.39187083068133,-62.889312632506
 3.9810301797571794,6.832034318587178,4.5132114771998975,123.97769448630285,-2.0121498063480816,-0.31160883407880535,-0.7409700127456743,-135.74261209675208,85.28302205978197,-62.640232405839534
 3.9897420717129677,6.842027032426972,4.498791284140305,124.72067096015077,-2.0154768900705413,-0.38190139861058015,-0.7385256935007413,-136.2883270335572,85.14815383813593,-62.3908867259669
 3.998483252931942,6.8522589032582895,4.484428161576003,125.464966403311,-2.0194290249749773,-0.45212824278911745,-0.7356378503986467,-136.83369708084138,84.987380936547,-62.14122808422796
 4.007252616755457,6.862732423644677,4.470123281785952,126.21025166715124,-2.0240093364132905,-0.5223082917407332,-0.7323121365445209,-137.378636118352,84.80086929583307,-61.891201348800394
 4.016049052495615,6.873450086149684,4.45587781704911,126.95619706462159,-2.0292208674584127,-0.5924594004967491,-0.7285554566397079,-137.9230580938979,84.58883572543476,-61.640743829759074
 4.024871446731189,6.884414383336856,4.441692939644439,127.70247312131957,-2.0350665718477856,-0.6625984096019824,-0.7243759344152538,-138.46687703693806,84.35154731916191,-61.389785377247506
 4.033718684620709,6.895627807769744,4.4275698218508985,128.4487513268013,-2.0415493077663713,-0.7327412238191036,-0.7197828715586404,-139.01000707215715,84.0893205842598,-61.13824851068222
 4.04258965122641,6.907092852011892,4.413509635947446,129.1947048816004,-2.0486718321123223,-0.8029028472921373,-0.7147866988050975,-139.55236243302647,83.80252030996182,-60.886048577417135
 4.05148323284277,6.918812008626849,4.399513554213044,129.94000943563373,-2.0564367955751206,-0.8730974536191414,-0.70939891946671,-140.09385747534742,83.49155815036136,-60.63309394057964
 4.060398318323282,6.9307877701781635,4.38558274892665,130.68434381344525,-2.0648467382210307,-0.9433384193898,-0.70363204621138,-140.63440669077553,83.15689098558238,-60.3792861946517
 4.069333800399181,6.9430226292293815,4.3717183923672245,131.42739072233442,-2.0739040858634903,-1.0136383874451427,-0.6974995315687326,-141.17392472032344,82.79901902355265,-60.124520406453584
 4.078288576984123,6.955519078344053,4.357921656813727,132.16883743914272,-2.0836111468698673,-1.084009289824126,-0.6910156931391427,-141.71232636784003,82.41848369970961,-59.868685380429866
 4.087261552458868,6.968279610085723,4.344193714545118,132.90837647204583,-2.0939701097496224,-1.1544624086973037,-0.684195634055726,-142.24952661346381,82.01586537710591,-59.61166394628627
 4.096251638930328,6.981306717017941,4.330535737840356,133.64570619381766,-2.1049830411405597,-1.2250083940681435,-0.6770551597826509,-142.78544062704856,81.59178086432843,-59.35333326636132
 4.105257757459704,6.994602891704253,4.316948898978402,134.38053144330468,-2.1166518844816093,-1.2956573137460408,-0.6696106919030884,-143.31998378155896,81.14688078864512,-59.09356516228299
 4.114278839254506,7.008170626708209,4.303434370238216,135.1125640922921,-2.1289784591575516,-1.3664186797468436,-0.6618791798979191,-143.8530716664344,80.68184682788528,-58.83222645609645
 4.123313826820043,7.022012414593355,4.289993323898755,135.84152357514662,-2.1419644600886363,-1.4373014724025284,-0.6538780117820834,-144.38462010091808,80.19738885368676,-58.569179327157045
 4.132361675065825,7.03613074792324,4.276626932238982,136.5671373792028,-2.15561145797669,-1.5083141888917997,-0.6456249243049856,-144.91454514735022,79.69424196882429,-58.30428167988477
 4.141421352363162,7.050528119261409,4.263336367537855,137.28914149389618,-2.1699208997653594,-1.5794648439494272,-0.6371379137984089,-145.44276312442298,79.17316351560041,-58.03738752136659
 4.1504918415504575,7.065207021171411,4.250122802074333,138.0072808174884,-2.18489410977163,-1.6507610225965144,-0.6284351481593846,-145.96919062039441,78.63493002522516,-57.768347346871444
 4.159572140883175,7.080169946216794,4.236987408127378,138.7213095201248,-2.2005322909935243,-1.722209879749989,-0.6195348809877403,-146.49374450626044,78.08033417557641,-57.49700852982561
 4.168661264926039,7.095419386961106,4.223931357975948,139.43099136275484,-2.2168365269438612,-1.793818180217115,-0.6104553683299244,-147.0163419488816,77.51018175523492,-57.223215716093016
 4.177758245385241,7.110957835967895,4.2109558238990035,140.1360999715714,-2.2338077837253376,-1.8655923091830653,-0.6012147887942627,-147.53690042406362,76.92528865876383,-56.9468112180279
 4.186862131879257,7.1267877858007065,4.198061978175503,140.83641906804027,-2.251446912401257,-1.93753829065339,-0.5918311675294294,-148.05533772958873,76.32647794794053,-56.667635410536974
 4.1959719926466565,7.142911729023091,4.1852509930844075,141.53174265501195,-2.269754651853017,-2.00966182900154,-0.5823223044221976,-148.57157199819645,75.714576972621,-56.38552712286822
 4.205086915190433,7.159332158198594,4.172524040904676,142.2218751595522,-2.288731631540839,-2.0819682884500677,-0.5727057072047692,-149.08552171051141,75.0904145923782,-56.10032402532235
 4.214206006858671,7.176051565890764,4.159882293915269,142.9066315336261,-2.308378374759867,-2.154462739689138,-0.5629985294560572,-149.59710570791617,74.45481850031288,-55.81186301299867
 4.2233283953611345,7.193072444663148,4.147326924395146,143.58583731386636,-2.3286953020329135,-2.227149969282634,-0.5532175139201824,-150.10624320536704,73.80861266252913,-55.51998057967246
 4.232453229222649,7.210397287079293,4.134859104623265,144.2593286419608,-2.3496827345196047,-2.300034477910925,-0.543378941348113,-150.61285380415103,73.15261489824663,-55.22451318466363
 4.241579678173778,7.2280285857027495,4.122480006878589,144.9269522474713,-2.3713408978403705,-2.373120524394665,-0.5334985847551393,-151.11685750458184,72.48763458315113,-54.925297609364584
 4.250706933479997,7.245968833097063,4.110190803440074,145.58856539485558,-2.3936699257035294,-2.446412104627487,-0.5235916694050929,-151.61817471863256,71.81447052367696,-54.62217130273149
 4.259834208210764,7.264220521825782,4.097992666586682,146.2440357969697,-2.4166698639198456,-2.5199129964596514,-0.5136728382034862,-152.11672628250358,71.13390895924924,-54.31497271488197
 4.268960737450173,7.282786144452452,4.085886768597372,146.89324149699976,-2.440340674186277,-2.5936267386531484,-0.5037561226826784,-152.61243346912366,70.44672174832348,-54.00354161851071
 4.278085778450984,7.301668193540625,4.073874281751105,147.53607072132596,-2.464682238264935,-2.6675566801831065,-0.49385491915464125,-153.10521800058157,69.75366468970404,-53.687719416574204
 4.287208610734197,7.320869161653843,4.0619563783268395,148.17242170542966,-2.489694361804434,-2.741705948658273,-0.4839819701620425,-153.59500206048722,69.0554760303721,-53.36734943520581
 4.296328536136593,7.3403915413556575,4.050134230603535,148.80220249545354,-2.515376778482286,-2.816077494571036,-0.47414935071035874,-154.08170830625986,68.35287511082531,-53.042277203721596
 4.305444878808385,7.360237825209616,4.038409010860152,149.425330727566,-2.541729153962119,-2.8906740815452303,-0.4643684592318084,-154.56525988134115,67.64656118695628,-52.712350719020264
 4.314556985163707,7.380410505779265,4.0267818913756495,150.04173338767336,-2.5687510899162946,-2.965498305272971,-0.45465001289253804,-155.0455804273319,66.93245143219907,-52.37369530679211
 4.323664871592643,7.400912075628154,4.015254044428988,150.65134655372813,-2.5960747492031033,-3.0,-0.4450040470173047,-155.5225940960499,66.20291032634069,-52.01960260777895
 4.332769736714898,7.421745027319828,4.003826642299126,151.25411512295017,-2.6233893445698673,-2.9999999999999756,-0.4354399182430217,-155.996225561507,65.45564380878027,-51.64749072028658
 4.341873266503863,7.442911853417836,3.9925008572650245,151.8499925262193,-2.650699933936762,-2.9999999999999756,-0.4259663111163496,-156.46640003180443,64.69248029983696,-51.25802745642612
 4.350977074283729,7.464415046485725,3.9812778616056423,152.43894043167177,-2.6780113572763597,-3.000000000000049,-0.4165912478560266,-156.9330432609428,63.91518430528155,-50.851869542097056
 4.360082704101737,7.486257099087043,3.9701588275999398,153.02092843970547,-2.7053282467303865,-2.9999999999999756,-0.4073221008477396,-157.39608156054683,63.12545432732416,-50.42966204262686
 4.369191633893219,7.508440503785339,3.959144927526876,153.59593377122843,-2.73265503610483,-3.000000000000049,-0.3981656076407839,-157.85544181150124,62.32492125658736,-49.99203785122437
 4.3783052784570184,7.530967753144159,3.9482373336654115,154.16394095102777,-2.759995969796229,-2.999999999999951,-0.38912788809263904,-158.31105147549732,61.515147216554055,-49.539617239464576
 4.387424992257114,7.55384133972705,3.937437218294505,154.72494148801349,-2.7873551111965154,-2.999999999999951,-0.3802144633437792,-158.76283860648752,60.69762482549061,-49.07300746892716
 4.3965520720645355,7.577063756097562,3.926745753693117,155.2789335539167,-2.814736350618781,-3.0,-0.37143027636635106,-159.21073186204663,59.87377684819108,-48.592802462297655
 4.405687759452299,7.600637494819241,3.9161641121402075,155.8259216619264,-2.842143412782068,-3.0,-0.36277971382198704,-159.65466051463747,59.04495621191241,-48.09958253207156
 4.414833243154755,7.6245650484556355,3.9056934659147355,156.36591634667474,-2.869579863889439,-3.0,-0.35426662885996196,-160.0945544627795,58.212446345306546,-47.59391416468449
 4.423989661301654,7.648848909570292,3.8953349872956604,156.89893384676628,-2.8970491183301363,-3.0000000000000244,-0.34589436477652685,-160.53034424211899,57.37746182125062,-47.076349857338855
 4.433158103536171,7.6734915707267595,3.8850898485619423,157.42499579103765,-2.924554445033688,-3.0,-0.33766577917310603,-160.96196103639792,56.54114926004502,-46.54742800508998
 4.442339613025297,7.698495524488584,3.8749592219925417,157.94412888949478,-2.9520989735010628,-3.000000000000024,-0.3295832684706863,-161.389336688321,55.70458847666625,-46.007672835173096
 4.451535188370157,7.7238632634193145,3.8649442798664175,158.4563646298864,-2.9796856995356444,-3.000000000000024,-0.3216487926073215,-161.81240371031853,54.868793834968955,-45.457594385653245
 4.460745785423154,7.749597280082499,3.8550461944625294,158.9617389806843,-3.0073174906946365,-3.0000000000000484,-0.3138638996565759,-162.23109529520337,54.03471578139156,-44.89768852541336
 4.469972319018147,7.775700067041684,3.845266138059837,159.46029210113718,-3.034997091479616,-2.999999999999976,-0.3062297503634698,-162.64534532672064,53.20324253899422,-44.32843701238254
 4.479215664619372,7.802174116860418,3.8356052829373004,159.9520680590309,-3.06272712828329,-3.0,-0.2987471423009655,-163.0550883899882,52.375201927279825,-43.75030758703535
 4.488476659894257,7.829021922102247,3.826064801373879,160.43711455660056,-3.090510114107943,-2.999999999999952,-0.2914165336482965,-163.4602597818265,51.55136329662153,-43.163754098090365
 4.497756106214869,7.856245975330721,3.816645865648533,160.91548266506595,-3.118348453069781,-3.000000000000024,-0.2842380664562585,-163.86079552097584,50.732439540685924,-42.56921665753665
 4.507054770092302,7.883848769109387,3.807349648040222,161.38722656803702,-3.1462444447020808,-3.0,-0.2772115892654774,-164.2566323581999,49.91908918590554,-41.96712182205659
 4.516373384547962,7.91183279600179,3.7981773208279055,161.85240331413814,-3.1742002880690614,-3.0000000000000475,-0.27033667909088865,-164.64770778627337,49.111918519871416,-41.35788279812889
 4.525712650425391,7.9402005485714815,3.7891300562905426,162.3110725789459,-3.202218085701349,-3.0,-0.26361266262110783,-165.03396004985265,48.311483758268416,-40.74189966813498
 4.535073237645957,7.968954519382008,3.780209026707094,162.7632964364201,-3.2302998473630464,-3.0000000000000235,-0.2570386366657438,-165.41532815522777,47.518293224545886,-40.11955963487264
 4.544455786411497,7.998097200996916,3.771415404356519,163.20913913985459,-3.258447493659664,-3.0,-0.2506134877510721,-165.79175187995392,46.73280953638154,-39.49123728213807
 4.553860908356748,8.027631085979753,3.762750361517777,163.64866691238848,-3.2866628594954195,-3.0,-0.24433591088601864,-166.1631717823613,45.955451780476956,-38.85729484904812
 4.563289187654204,8.057558666894067,3.754215070469829,164.08194774701562,-3.314947697387789,-3.0,-0.23820442742757028,-166.52952921094175,45.186597667699544,-38.2180825159016
 4.572741182073815,8.087882436303408,3.7458107034916335,164.5090512160119,-3.343303680646621,-2.9999999999999765,-0.2322174021112778,-166.89076631361027,44.42658566296548,-37.57393869969159
 4.582217423999804,8.118604886771323,3.7375384328621504,164.93004828969984,-3.371732406424588,-3.000000000000047,-0.22637305915847356,-167.24682604684082,43.675717073219566,-36.92519035720409
 4.5917184214067035,8.149728510861355,3.7293994308603393,165.34501116435698,-3.4002353986452856,-3.0000000000000235,-0.22066949753645657,-167.59765218467388,42.93425809528853,-36.272153294149454
 4.601244658796567,8.181255801137056,3.7213948697651604,165.75401309913036,-3.428814110814876,-3.0,-0.21510470531759904,-167.94318932759546,42.20244180973262,-35.61513247853204
 4.610796598099184,8.213189250161971,3.7135259218555734,166.15712826171915,-3.4574699287227264,-2.999999999999977,-0.2096765732464364,-168.28338291128506,41.480470124471374,-34.95442235693196
 4.620374679537015,8.245531350499654,3.705793759410537,166.55443158265086,-3.4862041730362217,-3.000000000000023,-0.20438290738048193,-168.61817921523212,40.76851565484284,-34.29030717226117
 4.629979322456444,8.278284594713643,3.6981995547090123,166.94599861787077,-3.5150181017945092,-3.0,-0.19922144100510839,-168.94752537121923,40.06672354501186,-33.623061281663205
 4.639610926126864,8.311451475367493,3.6907444800299585,167.3319054194286,-3.5439129128057676,-3.000000000000023,-0.19418984567723777,-169.27136937167043,39.375213221028126,-32.952949473704
 4.6492698705089905,8.34503448502475,3.683429707652335,167.71222841396488,-3.5728897459521467,-3.000000000000046,-0.18928574161102008,-169.58966007786395,38.530409278192714,-32.14368622277244
 4.6589976642653275,8.379036116248958,3.676256409855101,168.08704428877041,-3.571601070507122,0.13247355744821687,-0.18450670718461765,-169.9023472280075,37.39532950585883,-31.08308995917446
 4.668875518029902,8.41345886160367,3.669225758917218,168.45642988510735,-3.5419675092133973,3.0,-0.1798502879085413,-170.20938144517535,36.14519780641014,-29.919697372774642
 4.678946903317514,8.448305213652429,3.662338927117644,168.82046209851265,-3.5117533533505627,3.0,-0.17531400454448934,-170.5107142451053,34.92899501097891,-28.778484623859924
 4.6892179027329846,8.483577664958787,3.6555970867353396,169.17921778585335,-3.480940355104152,2.9999999999999782,-0.17089536072519368,-170.8062980438551,33.74587430391227,-27.659427314479448
 4.699694913632976,8.519278708086288,3.6490014100492645,169.5327736787652,-3.4495093224041766,3.0000000000000213,-0.16659184987215298,-171.09608616531642,32.594989959089894,-26.562493402892308
 4.710384673775681,8.555410835598483,3.642553069338378,169.88120630328174,-3.417440041976061,3.000000000000021,-0.16240096158818004,-171.38003284858553,31.47549870808187,-25.487643969331483
 4.72129428970325,8.591976540058917,3.6362532368816396,170.22459190531563,-3.384711194193354,2.9999999999999796,-0.1583201874495709,-171.65809325518956,30.38656093567109,-24.4348339622257
 4.7324312682232605,8.628978314031137,3.63010308495801,170.56300638175318,-3.351300258633324,3.00000000000004,-0.15434702629504798,-171.93022347616687,29.327341702921586,-23.404012927073058
 4.7438035514151835,8.666418650078693,3.624103785846448,170.89652521686511,-3.317183409057554,2.999999999999961,-0.15047898905105223,-172.19638053900098,28.297011608733133,-22.39512572006608
 4.75541955565901,8.704300040765132,3.618256511825914,171.22522342379975,-3.282335396326076,2.9999999999999236,-0.14671360306481607,-172.4565224144063,27.29474748942891,-21.408113208973404
 4.767288215268497,8.742624978654,3.612562435175367,171.5491754908787,-3.2467294174976127,3.0000000000000373,-0.14304841601085272,-172.71060802296498,26.319732962519275,-20.442912964048435
 4.77941903141418,8.78139595630885,3.6070227281737672,171.86845533245045,-3.2103369690605663,3.0,-0.1394809994008374,-172.95859724161403,25.371158816157756,-19.499459941955454
 4.791822127145391,8.820615466293221,3.6016385631000745,172.18313624405906,-3.1731276818669336,3.0,-0.13600895171217578,-173.20045090998102,24.448223245819598,-18.577687166131508
 4.804508309471504,8.860286001170667,3.5964111122332474,172.49329086170502,-3.135069134888594,2.999999999999965,-0.13262990116342965,-173.43613083656805,23.550131933593544,-17.677526407416966
 4.817489139646833,8.900410053504736,3.591341547852247,172.7989911249416,-3.096126644362607,2.999999999999966,-0.1293415081503578,-173.66559980478263,22.676097971059544,-16.798908869172333
 4.830777013030181,8.94099011585897,3.586431042236033,173.10030824360945,-3.056263024212562,3.0,-0.1261414673873498,-173.8888215788146,21.825341617838237,-15.941765881746841
 4.844385250169828,8.982028680796923,3.5816807676635642,173.3973126679988,-3.0154383127936217,3.0000000000000324,-0.12302750980358873,-174.10576090935814,20.99708988594337,-15.106029611863125
 4.858328201112716,9.02352824088214,3.5770918964138003,173.69007406222192,-2.9736094599649574,3.0,-0.11999740407751996,-174.31638353917816,20.190575939065088,-14.291633793142513
 4.87262136537219,9.065491288678167,3.5726656007657027,173.97866128061236,-2.930729967186536,2.999999999999969,-0.11704895805394756,-174.5206562085198,19.405038287539845,-13.498514485197028
 4.887281530537604,9.107920316748553,3.568403052998229,174.26314234694885,-2.8867494716902944,3.0,-0.11418001983077734,-174.71854666036052,18.639719759550793,-12.726610869762144
 4.902326933206308,9.150817817656847,3.5643054253903395,174.54358443636312,-2.8416132636841818,2.9999999999999707,-0.11138847870599777,-174.910023645504,17.893866211420754,-11.975866093888165
 4.917777446810916,9.194186283966594,3.5603738902209945,174.8200538597017,-2.7952617228703587,3.0,-0.10867226594614643,-175.09505692751458,17.16672494514886,-11.246228172103399
 4.933654802066824,9.238028208241344,3.5566096197691537,175.09261605023627,-2.747629657102632,3.0,-0.10602935532149578,-175.27361728749207,16.457542775232646,-10.537650961696887
 4.949982847265799,9.282346083044645,3.5530137863137763,175.36133555253434,-2.698645521505708,2.999999999999973,-0.1034577635062532,-175.44567652868568,15.765563680160946,-9.850095228280427
 4.966787857615929,9.32714240094004,3.549587562133822,175.62627601335507,-2.648230490455321,3.0,-0.10095555040688432,-175.6112074809467,15.090025949231716,-9.18352982238153
 4.984098905453404,9.372419654491084,3.546332119508252,175.88750017443098,-2.5962973469428947,2.9999999999999742,-0.09852081925913055,-175.77018400501882,14.430158707322127,-8.537932992725688
 5.001948306681664,9.418180336261319,3.543248630716023,176.1450698669854,-2.542749143258118,2.999999999999975,-0.09615171666632705,-175.92258099666597,13.785177666824918,-7.913293867837605
 5.020372163599596,9.464426938814295,3.5403382680360975,176.3990460079073,-2.4874775725043206,3.0,-0.09384643250274613,-176.06837439063656,13.154279893367228,-7.309614145733439
 5.039411030912208,9.51116195471356,3.5376022037474337,176.64948859739008,-2.4303609705664826,3.0000000000000235,-0.09160319976079756,-176.20754116446358,12.536637314509381,-6.726910042039582
 5.059110741003235,9.558387876522655,3.5350416101289923,176.89645671800224,-2.3712618402934016,3.0,-0.08942029426058323,-176.34005934210018,11.931388580776298,-6.165214560974775
 5.079523437762621,9.60610719680514,3.532657659459732,177.14000853502003,-2.310023750015244,2.9999999999999782,-0.08729603433415395,-176.4659079973899,11.337628752626658,-5.624580172849684
 5.100708887399639,9.654322408124553,3.5304515240186136,177.380201297962,-2.2464674011041916,3.0,-0.08522878039096832,-176.58506725737118,10.754396058337564,-5.105082007925771
 5.12273616293993,9.703036003044446,3.528424376084596,177.61709134320844,-2.180385574483318,3.00000000000002,-0.08321693446306729,-176.69751830541554,10.18065464287392,-4.606821713127348
 5.145685841778617,9.752250474128365,3.5265773879366393,177.85073409762998,-2.1115365379672557,2.9999999999999805,-0.08125893969381025,-176.8032433841989,9.615271716285383,-4.129932169955757
 5.169652921680546,9.801968313939856,3.524911731853703,178.08118408313294,-2.039635298261471,2.999999999999963,-0.07935327974672525,-176.90222579850578,9.0569867082937,-3.6745833467882303
 5.1947507656144065,9.85219201504247,3.5234285801147465,178.30849492204877,-1.964341766459888,2.999999999999991,-0.07749847820143249,-176.99444991786544,8.504368724357585,-3.240989669200058
 5.221116558127424,9.902924069999754,3.5221291049987307,178.53271934328933,-1.8852443889208395,2.999999999999983,-0.07569309791148508,-177.0799011790204,7.955756388474478,-2.8294194581650833
 5.248919049192676,9.954166971375251,3.5210144787846134,178.75390918919726,-1.8018369157250822,3.000000000000008,-0.07393574034965232,-177.15856608822588,7.409170274784474,-2.4402072432430115
 5.278369881843868,10.005923211732519,3.5200858737513565,178.9721154230441,-1.7134844177715054,3.0000000000000075,-0.07222504486120473,-177.23043222338086,6.862180972441378,-2.0737701658072605
 5.309740770325757,10.058195283635094,3.5193444621779184,179.1873881370731,-1.6193717523258393,2.999999999999986,-0.07055968799893568,-177.29548823598947,6.3117018851831155,-1.7306303536968146
 5.343390715757094,10.110985679646529,3.5187914163432583,179.39977656108837,-1.518421916031828,2.9999999999999867,-0.06893838273320896,-177.35372385295318,5.753646713366104,-1.4114462652176927
 5.379811532125807,10.164296892330373,3.5184279085263377,179.60932907148634,-1.4091594669256888,2.999999999999988,-0.06735987774759579,-177.40512987819298,5.182325148837395,-1.1170579019476587
 5.419709478177547,10.218131414250173,3.518255111006115,179.81609320069722,-1.2894656287704696,2.999999999999989,-0.06582295665799769,-177.44969819410156,4.58928083781528,-0.8485539420115163
 5.464165778308816,10.272491737969474,3.51827419606155,-179.97988435299015,-1.1560967283766646,2.999999999999985,-0.06432643722877257,-177.4874217628252,3.9607709576451935,-0.6073729074914469
 5.514995942395962,10.327380356051826,3.518486335971602,-179.77855771530145,-1.003606236115225,3.0000000000000044,-0.06286917065568957,-177.51829462737507,3.271194001272783,-0.39544405387516124
 5.5757309185766015,10.382799761060777,3.518892703015232,-179.57988182555192,-0.8214013075733083,2.9999999999999907,-0.061450040710104396,-177.54231191256795,2.45911932115969,-0.21519602765859006
 5.6554624703849115,10.43875244555987,3.5194944694713994,-179.38381242599405,-0.5822066521483792,2.9999999999999916,-0.060067963042461696,-177.55946982579616,0.9971014982673992,-0.05305246062768173
 5.8495313544343706,10.49524090211266,3.5202928076190623,-179.19030605094127,0,3.0000000000000027,-0.060067963042461696,-177.56976565762625,0.0,0.0